<?xml version="1.0" standalone="no"?>
<!DOCTYPE svg PUBLIC "-//W3C//DTD SVG 1.1//EN" "http://www.w3.org/Graphics/SVG/1.1/DTD/svg11.dtd" >
<svg xmlns="http://www.w3.org/2000/svg">
<metadata>
This is a custom SVG font generated by IcoMoon.
5
</metadata>
<defs>
<font id="icomoon" horiz-adv-x="512" >
<font-face units-per-em="512" ascent="480" descent="-32" />
<missing-glyph horiz-adv-x="512" />
<glyph unicode="&#x69;" d="M 256.00,480.00C 114.608,480.00,0.00,365.376,0.00,224.00c0.00-141.376, 114.608-256.00, 256.00-256.00s 256.00,114.624, 256.00,256.00
	C 512.00,365.376, 397.392,480.00, 256.00,480.00z M 256.00,384.00c 17.664,0.00, 32.00-14.336, 32.00-32.00s-14.336-32.00-32.00-32.00s-32.00,14.336-32.00,32.00S 238.336,384.00, 256.00,384.00z M 176.00,96.00l 48.00,32.00l 32.00,0.00 l0.00,128.00 l-32.00,0.00 l-16.00,32.00l 80.00,0.00 l0.00-32.00 l0.00-128.00 l 32.00,0.00 l 48.00-32.00
	L 176.00,96.00 z" />
<glyph unicode="&#x21;" d="M 499.724,32.456L 271.696,432.644c-3.145,5.512-9.052,8.924-15.463,8.924c-6.404,0.00-12.313-3.412-15.456-8.924
		L 12.764,32.456c-3.096-5.42-3.044-12.047, 0.14-17.42c 3.181-5.368, 9.008-8.668, 15.312-8.668l 456.049,0.00 
		c 6.288,0.00, 12.124,3.30, 15.312,8.668C 502.752,20.408, 502.803,27.036, 499.724,32.456z M 287.28,57.568L 225.192,57.568 l0.00,51.20 l 62.088,0.00 
		L 287.28,57.568 z M 287.28,147.175L 225.192,147.175 l0.00,153.60 l 62.088,0.00 L 287.28,147.175 z" />
<glyph unicode="&#x54;" d="M 251.929,469.704C 116.208,467.896, 7.661,356.404, 9.48,220.684c 1.808-135.709, 113.299-244.268, 249.02-242.451
		c 135.709,1.812, 244.268,113.304, 242.451,249.025C 499.141,362.976, 387.632,471.524, 251.929,469.704z M 257.808,29.964
		c-107.147-1.428-195.168,84.268-196.60,191.42c-1.428,107.14, 84.272,195.16, 191.412,196.592
		c 107.147,1.428, 195.16-84.264, 196.60-191.412C 450.648,119.416, 364.953,31.404, 257.808,29.964z M 195.08,182.335
		c-10.379,0.00-18.241,3.777-23.56,11.36c-5.328,7.568-7.98,17.656-7.98,30.28c0.00,27.748, 10.507,41.629, 31.54,41.629
		c 4.199,0.00, 8.76-1.40, 13.66-4.199c 4.90-2.812, 9.04-7.72, 12.412-14.72l 31.536,16.399
		c-12.609,22.708-33.507,34.068-62.668,34.068c-19.909,0.00-36.372-6.588-49.40-19.768c-13.041-13.18-19.572-30.98-19.572-53.408
		c0.00-22.992, 6.465-40.944, 19.352-53.84c 12.888-12.903, 29.872-19.343, 50.90-19.343c 13.173,0.00, 25.228,3.304, 36.161,9.881
		c 10.932,6.593, 19.492,15.631, 25.659,27.132l-29.032,14.72C 218.48,189.064, 208.808,182.335, 195.08,182.335z M 330.92,182.335
		c-10.379,0.00-18.232,3.777-23.552,11.36c-5.328,7.568-7.988,17.656-7.988,30.28c0.00,27.748, 10.507,41.629, 31.54,41.629
		c 4.48,0.00, 9.18-1.40, 14.08-4.199c 4.912-2.812, 9.048-7.72, 12.42-14.72l 31.108,16.399
		c-12.336,22.708-33.079,34.068-62.24,34.068c-19.909,0.00-36.376-6.588-49.416-19.768c-13.031-13.18-19.544-30.98-19.544-53.408
		c0.00-22.992, 6.372-40.944, 19.131-53.84c 12.748-12.903, 29.788-19.343, 51.101-19.343c 12.888,0.00, 24.808,3.304, 35.741,9.881
		c 10.932,6.593, 19.62,15.631, 26.08,27.132l-29.44,14.72C 354.329,189.064, 344.648,182.335, 330.92,182.335z" />
<glyph unicode="&#x60;" d="M 253.096,459.468C 123.032,457.728, 19.016,350.867, 20.74,220.796c 1.744-130.008, 108.588-234.06, 238.652-232.328
		c 130.04,1.74, 234.08,108.603, 232.349,238.668C 490.003,357.156, 383.14,461.196, 253.096,459.468z M 252.40,80.608l-0.008,0.00 
		l-1.296,0.019c-20.027,0.592-34.147,15.349-33.576,35.08c 0.56,19.393, 15.02,33.473, 34.384,33.473l 1.164-0.015
		c 20.588-0.612, 34.552-15.217, 33.972-35.516C 286.468,94.196, 272.228,80.608, 252.40,80.608z M 336.648,247.82
		c-4.708-6.688-15.068-15.001-28.124-25.168l-14.372-9.921c-7.888-6.136-12.644-11.904-14.439-17.58
		c-1.408-4.469-2.096-5.651-2.212-14.745l-0.029-2.312L 222.60,178.095 l 0.16,4.644c 0.664,19.087, 1.14,30.316, 9.044,39.596
		c 12.416,14.572, 39.788,32.20, 40.949,32.948c 3.928,2.952, 7.236,6.32, 9.696,9.908c 5.756,7.94, 8.312,14.197, 8.312,20.337
		c0.00,8.524-2.536,16.408-7.533,23.428c-4.809,6.776-13.944,10.208-27.148,10.208c-13.10,0.00-22.075-4.156-27.448-12.687
		c-5.512-8.769-8.309-17.979-8.309-27.388l0.00-2.34 L 163.744,276.748 l 0.104,2.44c 1.46,34.656, 13.824,59.608, 36.752,74.177
		c 14.408,9.264, 32.325,13.963, 53.232,13.963c 27.377,0.00, 50.48-6.652, 68.677-19.771c 18.432-13.287, 27.776-33.20, 27.776-59.165
		C 350.284,273.868, 345.70,260.22, 336.648,247.82z" />
<glyph unicode="&#x61;" d="M 253.096,459.468C 123.032,457.728, 19.016,350.867, 20.74,220.796c 1.744-130.008, 108.588-234.06, 238.652-232.328
		c 130.04,1.748, 234.08,108.609, 232.349,238.668C 490.003,357.156, 383.14,461.204, 253.096,459.468z M 279.20,380.98
		c 23.944,0.00, 31.016-13.892, 31.016-29.772c0.00-19.852-15.892-38.199-42.992-38.199c-22.68,0.00-33.473,11.412-32.841,30.26
		C 234.384,359.152, 247.688,380.98, 279.20,380.98z M 217.82,76.768c-16.359,0.00-28.347,9.924-16.896,53.588l 18.764,77.44
		c 3.265,12.412, 3.816,17.372,0.00,17.372c-4.904,0.00-26.144-8.572-38.688-17.012l-8.176,13.40
		C 212.624,254.793, 258.392,274.288, 278.016,274.288c 16.352,0.00, 19.08-19.352, 10.905-49.12l-21.496-81.412
		c-3.816-14.388-2.176-19.348, 1.632-19.348c 4.912,0.00, 20.992,5.968, 36.801,18.38l 9.264-12.412
		C 276.417,91.676, 234.167,76.768, 217.82,76.768z" />
<glyph unicode="&#x62;" d="M 286.456,112.508c0.00,37.149, 28.148,57.684, 74.083,88.112c 56.172,37.224, 126.099,83.544, 126.099,193.488
		c0.00,9.896-8.116,17.92-18.128,17.92l-87.808,0.00 c-12.42,22.927-49.392,47.459-124.464,47.459c-75.077,0.00-112.048-24.532-124.468-47.459
		L 43.959,412.028 c-10.009,0.00-18.12-8.024-18.12-17.92c0.00-109.944, 69.92-156.263, 126.099-193.488
		c 45.932-30.428, 74.083-50.964, 74.083-88.112l0.00-33.552 C 177.788,73.596, 142.336,55.739, 142.336,34.528c0.00-25.452, 50.992-46.08, 113.904-46.08
		c 62.908,0.00, 113.904,20.628, 113.904,46.08c0.00,21.212-35.448,39.069-83.688,44.427L 286.457,112.508 z M 357.536,241.891
		c 14.529,30.728, 26.012,72.376, 27.872,134.297l 64.22,0.00 C 443.524,307.084, 401.985,272.176, 357.536,241.891z M 256.24,428.10
		c 69.944,0.048, 97.264-28.559, 97.228-39.164c0.00-10.668-27.276-39.228-97.228-39.288
		c-69.953,0.06-97.232,28.62-97.232,39.288C 158.976,399.54, 186.295,428.149, 256.24,428.10z M 62.848,376.188l 64.22,0.00 
		c 1.861-61.92, 13.344-103.568, 27.876-134.297C 110.496,272.176, 68.952,307.084, 62.848,376.188z" />
<glyph unicode="&#x63;" d="M 25.841,238.947l0.00-156.804 c0.00-15.129, 7.344-24.576, 22.82-24.576c0.00,0.00, 51.804,0.00, 79.58,0.00l0.00,204.80 L 47.964,262.368 
		C 31.432,262.368, 25.841,249.804, 25.841,238.947z M 427.232,293.088c-29.368,0.00-94.192-2.56-94.192-2.56l 5.12,79.941
		c0.00,48.961-9.336,71.099-35.888,71.099c-32.932,0.00-19.643-40.024-30.292-74.70c-10.652-34.677-68.152-104.50-109.74-104.50
		l-8.40,0.00 l0.00-204.80 c 58.748,0.00, 59.64-51.20, 112.744-51.20c 33.916,0.00, 108.088,0.00, 108.088,0.00c 53.40,0.00, 111.968,47.28, 111.968,88.228L 486.641,217.996 
		C 486.641,264.608, 467.964,293.088, 427.232,293.088z" />
<glyph unicode="&#x64;" d="M 423.705,391.952c-36.948,36.948-64.669,31.40-64.669,31.40L 229.712,294.028l-147.808-147.804l-25.856-121.936
		l 121.925,25.864l 147.811,147.804l 129.328,129.32C 455.112,327.277, 460.664,355.00, 423.705,391.952z M 170.708,64.808
		l-41.556-8.949c-4.02,7.508-8.84,15.004-17.688,23.856c-8.847,8.843-16.352,13.66-23.852,17.692l 8.956,41.552
		l 12.007,12.021c0.00,0.00, 22.624-0.449, 48.157-25.996c 25.541-25.537, 25.999-48.164, 25.999-48.164L 170.708,64.808z" />
<glyph unicode="&#x66;" d="M 486.641,49.888c0.00,0.00-51.20,249.18-275.84,249.18l0.00,98.98 l-184.96-165.248l 184.96-171.296L 210.801,173.075 
		C 332.728,173.075, 423.059,162.264, 486.641,49.888z" />
<glyph unicode="&#x67;" d="M 185.20,329.428L 185.20,398.048 L 0.24,232.80l 184.96-171.296L 185.20,132.623 l-108.16,100.176L 185.20,329.428z M 313.201,299.068
		l0.00,98.98 l-184.96-165.248l 184.96-171.296L 313.201,173.064 c 84.28,0.00, 135.46-10.80, 199.04-123.176
		C 512.241,49.888, 502.828,299.068, 313.201,299.068z" />
<glyph unicode="&#x68;" d="M 301.681,173.075l0.00-111.56 l 184.96,171.283l-184.96,165.248l0.00-98.98 c-224.64,0.00-275.84-249.18-275.84-249.18
		C 89.42,162.264, 179.748,173.075, 301.681,173.075z" />
<glyph unicode="&#x6a;" d="M 142.311-27.864c-33.66,0.00-65.16,14.28-87.912,37.032C 10.32,53.248-1.968,130.195, 59.831,191.996
		c 36.208,36.208, 181.248,181.244, 253.648,253.652c 25.70,25.704, 58.42,35.624, 89.739,27.236
		c 30.76-8.24, 55.972-33.44, 64.212-64.201c 8.388-31.336-1.532-64.044-27.232-89.744L 197.632,76.368
		c-13.852-13.852-29.492-22.052-45.22-23.712c-15.572-1.639-30.44,3.38-40.84,13.78
		c-18.872,18.86-21.56,54.371, 9.808,85.731l 170.38,170.384c 7.00,7.00, 18.34,7.00, 25.34,0.00
		c 7.00-6.992, 7.00-18.344,0.00-25.34L 146.72,126.823c-14.728-14.72-16.08-28.776-9.808-35.048
		c 2.747-2.753, 6.92-3.992, 11.728-3.48c 7.38,0.779, 15.78,5.552, 23.652,13.408l 242.568,242.576
		c 16.64,16.644, 23.02,36.22, 17.952,55.124c-4.992,18.619-20.239,33.868-38.86,38.86c-18.90,5.068-38.48-1.312-55.132-17.956
		C 266.42,347.90, 121.38,202.855, 85.172,166.656c-47.261-47.261-35.939-101.632-5.431-132.151
		c 30.512-30.508, 84.88-41.827, 132.151,5.431l 253.648,253.652c 7.00,7.00, 18.34,7.00, 25.34,0.00
		c 7.00-6.996, 7.00-18.344,0.00-25.34L 237.232,14.596C 207.331-15.304, 173.872-27.864, 142.311-27.864z" />
<glyph unicode="&#x6b;" d="M 317.088,110.105C 253.312,133.101, 232.935,152.504, 232.935,194.048c0.00,24.936, 19.464,16.788, 28.017,62.46
		c 3.548,18.94, 20.748,0.304, 24.036,43.556c0.00,17.232-9.388,21.519-9.388,21.519s 4.776,25.504, 6.64,45.136
		c 2.319,24.46-14.28,87.648-102.80,87.648c-88.517,0.00-105.12-63.188-102.795-87.648
		c 1.865-19.632, 6.637-45.136, 6.637-45.136s-9.392-4.289-9.392-21.519c 3.296-43.253, 20.492-24.616, 24.036-43.556
		c 8.561-45.672, 28.024-37.524, 28.024-62.46c0.00-41.545-20.38-60.948-84.161-83.944c-7.676-2.768-25.984-7.072-41.548-13.788
		l0.00-102.748 l 409.60,0.00 c0.00,0.00,0.00,37.868,0.00,53.896C 409.841,63.503, 381.068,87.025, 317.088,110.105z M 435.441,249.568l0.00,76.80 l-51.20,0.00 l0.00-76.80 l-76.80,0.00 l0.00-51.20 
		l 76.80,0.00 l0.00-76.80 l 51.20,0.00 l0.00,76.80 l 76.80,0.00 l0.00,51.20 L 435.441,249.568 z" />
<glyph unicode="&#x74;" d="M 256.227,479.96L 138.48,293.095l 235.52-0.019L 256.227,479.96z M 256.26-32.028l 117.741,186.864l-235.52,0.019L 256.26-32.028z" />
<glyph unicode="&#x77;" d="M 256.24,449.248L 317.368,277.152L 481.521,277.152L 347.589,176.092L 395.468-1.312L 256.24,105.056L 117.021-1.312L 164.889,176.092L 30.961,277.152L 195.108,277.152 	z" />
<glyph unicode="&#x78;" d="M 480.497,277.156L 316.336,277.156 L 255.216,449.252L 194.084,277.156L 29.937,277.156 l 133.928-101.061l-47.88-177.408l 139.232,106.368l 139.22-106.368
	l-47.872,177.408L 480.497,277.156z M 255.216,155.276L 178.084,91.236l 31.813,91.212L 136.924,241.316l 90.141-2.56l 28.152,103.416
	L 283.356,238.756l 90.141,2.56l-72.96-58.869l 31.809-91.212L 255.216,155.276z" />
<glyph unicode="&#x79;" d="M 429.912,223.968c0.00,26.817, 16.508,47.98, 41.368,62.532c-4.476,14.968-10.412,29.304-17.712,42.80
		c-27.872-7.292-50.432,3.632-69.40,22.593c-18.964,18.968-24.769,41.532-17.473,69.408
		c-13.496,7.30-27.832,13.232-42.807,17.708c-14.548-24.864-40.828-41.368-67.649-41.368
		c-26.817,0.00-53.096,16.504-67.653,41.368c-14.968-4.469-29.304-10.408-42.80-17.708c 7.292-27.872, 1.492-50.436-17.477-69.408
		c-18.964-18.964-41.532-29.883-69.405-22.593c-7.30-13.496-13.236-27.832-17.708-42.80
		c 24.86-14.552, 41.364-35.716, 41.364-62.532c0.00-26.811-16.504-53.104-41.364-67.653c 4.472-14.972, 10.408-29.304, 17.708-42.80
		c 27.876,7.292, 50.44,1.492, 69.405-17.48c 18.959-18.959, 24.769-41.532, 17.477-69.40
		c 13.496-7.30, 27.832-13.24, 42.804-17.708c 14.556,24.856, 40.832,41.368, 67.649,41.364c 26.821,0.00, 53.10-16.508, 67.649-41.364
		c 14.976,4.472, 29.312,10.408, 42.812,17.712c-7.292,27.864-1.496,50.436, 17.467,69.395c 18.968,18.972, 41.532,29.893, 69.40,22.60
		c 7.30,13.496, 13.236,27.828, 17.712,42.80C 446.42,175.985, 429.912,197.156, 429.912,223.968z M 256.24,130.447
		c-51.649,0.00-93.516,41.867-93.516,93.52s 41.867,93.52, 93.516,93.52s 93.512-41.867, 93.512-93.52
		S 307.888,130.447, 256.24,130.447z" />
<glyph unicode="&#x7a;" d="M 376.448,237.10L 157.28,372.883c-15.972,10.481-29.041,2.768-29.041-17.132l0.00-263.58 c0.00-19.888, 13.067-27.60, 29.041-17.128
		L 376.448,210.82c0.00,0.00, 7.792,5.479, 7.792,13.144C 384.241,231.62, 376.448,237.10, 376.448,237.10z" />
<glyph unicode="&#x7b;" d="M 345.841,403.168c-25.457,0.00-46.08-7.833-46.08-33.28l0.00-291.84 c0.00-25.452, 20.623-33.28, 46.08-33.28c 25.448,0.00, 46.08,7.827, 46.08,33.28l0.00,291.84 
			C 391.921,395.336, 371.288,403.168, 345.841,403.168zM 166.64,403.168c-25.457,0.00-46.08-7.833-46.08-33.28l0.00-291.84 c0.00-25.452, 20.623-33.28, 46.08-33.28c 25.448,0.00, 46.08,7.827, 46.08,33.28l0.00,291.84 
			C 212.72,395.336, 192.088,403.168, 166.64,403.168z" />
<glyph unicode="&#xe008;" d="M 384.00-32.00L 384.00-32.00c-8.848,0.00-16.00,7.152-16.00,16.00l-160.00,144.00L 128.00,128.00 c-8.832,0.00-16.00,7.152-16.00,16.00l0.00,128.00 
	c0.00,8.848, 7.168,16.00, 16.00,16.00l 80.00,0.00 L 368.00,464.00c0.00,8.848, 7.152,16.00, 16.00,16.00l0.00,0.00c 8.848,0.00, 16.00-7.152, 16.00-16.00l0.00-480.00 C 400.00-24.848, 392.848-32.00, 384.00-32.00z" />
<glyph unicode="&#xe009;" d="M 309.072,367.92l 16.496,0.00 c 31.984,44.032-21.952,64.048,0.00,112.08l-16.496,0.00 
		C 289.888,432.768, 335.008,414.352, 309.072,367.92z M 244.704,351.904l 16.768,0.00 c-22.304,48.032, 32.496,84.064,0.00,128.096l-16.768,0.00 
		C 271.056,433.568, 225.20,399.136, 244.704,351.904z M 487.472,73.328c-3.20,12.336-7.024,18.64-24.496,20.016
		c-6.64,0.432-12.992,0.816-19.584,1.248c 0.176,0.32, 0.288,0.784, 0.432,1.12l-51.04,0.00 c-4.448,0.00-8.064,3.584-8.064,8.00
		c0.00,4.432, 3.616,8.016, 8.064,8.016l 54.496,0.00 c 1.12,13.60-0.496,30.288-5.328,38.992c-7.152,13.776-13.808,24.976-20.272,33.824
		c-11.152,13.92-31.824,23.248-47.104,28.272c-1.792,0.464-3.968,0.88-6.32,1.264c-0.816-3.568-3.872-6.288-7.696-6.288l-48.336,0.00 
		c-4.448,0.00-8.064,3.584-8.064,8.016c0.00,1.872, 6.544,3.584, 14.336,4.96c-9.696,22.928, 1.776,51.072, 1.776,51.072
		c0.00,17.68-32.24,53.36-32.24,32.016s-76.688,0.00-76.688,0.00c-10.416,11.664-19.984,32.016-19.984,32.016s-28.096-15.872-31.552-36.096
		c-9.968-5.44-16.80-15.84-16.80-27.952l0.00-16.00 c0.00-7.472, 1.328-20.00, 4.672-32.016l 35.616,0.00 c 4.448,0.00, 8.064-3.584, 8.064-8.00
		c0.00-4.432-3.616-8.016-8.064-8.016L 134.992,207.792 c-3.616,0.00-6.544,2.368-7.584,5.632c-10.656,2.32-21.44,5.344-32.384,9.488
		c-17.952-0.368-32.528-14.448-32.528-31.968l0.00-31.664 c 0.016-5.904, 1.696-11.488, 4.656-16.336c 1.024,0.48, 2.176,0.80, 3.392,0.80l 64.448,0.00 
		c 4.448,0.00, 8.048-3.584, 8.048-8.00s-3.60-8.016-8.048-8.016L 85.664,127.728 c 1.408-0.544, 2.832-1.088, 4.336-1.488
		c-8.992,0.096-18.00,0.40-26.976,0.40c-15.712-0.08-37.184-13.584-44.464-25.824c-10.864-19.008-16.528-34.272-18.496-64.272
		C-0.992,16.512, 12.624-32.00, 27.728-32.00s 435.44,0.352, 435.44,0.352s 47.92,29.776, 48.72,48.112C 513.776,43.952, 491.408,54.704, 487.472,73.328z
		 M 185.728,383.936l 16.768,0.00 c-26.352,46.432, 19.504,48.832,0.00,96.064l-16.768,0.00 C 208.016,431.968, 153.248,427.968, 185.728,383.936z" />
<glyph unicode="&#x35;" d="M0.00,480.00L 384.00,224.00L0.00-32.00 	z" horiz-adv-x="384" />
<glyph unicode="&#x36;" d="M0.00,480.00L 128.00,480.00L 128.00-32.00L0.00-32.00zM 256.00,480.00L 384.00,480.00L 384.00-32.00L 256.00-32.00z" horiz-adv-x="384" />
<glyph unicode="&#x37;" d="M0.00,480.00L 512.00,480.00L 512.00-32.00L0.00-32.00z" />
<glyph unicode="&#xe001;" d="M 256.00,480.00C 114.624,480.00,0.00,365.376,0.00,224.00s 114.624-256.00, 256.00-256.00s 256.00,114.624, 256.00,256.00S 397.376,480.00, 256.00,480.00z M 160.00,96.00L 160.00,352.00 l 256.128-128.00L 160.00,96.00z
		" />
<glyph unicode="&#xe002;" d="M 96.00,288.00L0.00,192.00L 192.00,0.00L 512.00,320.00L 416.00,416.00L 192.00,192.00 z" />
<glyph unicode="&#xe003;" d="M 480.00,89.632L 345.504,224.00L 480.00,358.368L 390.368,448.00L 256.00,313.568L 121.568,448.00L 32.00,358.368L 166.368,224.00L 32.00,89.632L 121.568,0.00L 256.00,134.432L 390.368,0.00 		z" />
<glyph unicode="&#xe004;" d="M 256.00,480.00C 114.615,480.00,0.00,365.385,0.00,224.00s 114.613-256.00, 256.00-256.00c 141.385,0.00, 256.00,114.615, 256.00,256.00S 397.385,480.00, 256.00,480.00z M 280.822,137.941
	c-23.26,1.807-33.021,13.328-51.252,24.404C 219.54,109.757, 207.288,59.337, 171.00,33.002
	c-11.202,79.484, 16.447,139.182, 29.285,202.557c-21.892,36.853, 2.635,111.017, 48.81,92.737
	c 56.813-22.474-49.20-137.004, 21.966-151.308c 74.31-14.934, 104.644,128.929, 58.571,175.712
	c-66.579,67.553-193.799,1.54-178.155-95.178c 3.807-23.646, 28.236-30.819, 9.762-63.451c-42.61,9.446-55.325,43.051-53.688,87.856
	c 2.634,73.337, 65.892,124.682, 129.343,131.783c 80.242,8.982, 155.553-29.454, 165.953-104.938
	C 414.553,223.577, 366.623,131.307, 280.822,137.941z" />
<glyph unicode="&#xe005;" d="M 256.00,480.00C 114.615,480.00,0.00,365.385,0.00,224.00s 114.615-256.00, 256.00-256.00s 256.00,114.615, 256.00,256.00S 397.385,480.00, 256.00,480.00z M 157.64,65.399L 90.615,65.399 L 90.615,268.63 
	l 67.025,0.00 L 157.64,65.399 z M 124.129,296.364l-0.44,0.00 c-22.493,0.00-37.04,15.614-37.04,35.127c0.00,19.931, 14.987,35.111, 37.919,35.111
	c 22.928,0.00, 37.042-15.174, 37.48-35.111C 162.048,311.984, 147.498,296.364, 124.129,296.364z M 413.351,65.399l-67.026,0.00 L 346.325,174.13 
	c0.00,27.311-9.699,45.946-33.95,45.946c-18.522,0.00-29.558-12.567-34.393-24.705c-1.768-4.343-2.207-10.401-2.207-16.472l0.00-113.498 l-67.04,0.00 
	c0.00,0.00, 0.881,184.159,0.00,203.229l 67.034,0.00 l0.00-28.79 c 8.901,13.839, 24.82,33.569, 60.41,33.569c 44.108,0.00, 77.172-29.059, 77.172-91.473L 413.351,65.399 z" />
<glyph unicode="&#xe006;" d="M 487.655,191.031c 1.406,10.40, 2.215,20.973, 2.215,31.736c0.00,129.155-105.271,233.872-235.103,233.872
	c-12.904,0.00-25.555-1.06-37.866-3.08c-22.072,14.384-48.342,22.767-76.612,22.767C 62.766,476.326,0.00,413.518,0.00,336.02
	c0.00-28.198, 8.299-54.394, 22.59-76.389c-1.925-12.017-2.909-24.323-2.909-36.859c0.00-129.176, 105.217-233.882, 235.085-233.882
	c 14.657,0.00, 28.927,1.427, 42.796,3.933c 21.55-13.369, 46.934-21.148, 74.146-21.148C 449.21-28.326, 512.00,34.498, 512.00,111.988
	C 511.997,141.281, 503.04,168.516, 487.655,191.031z M 276.74,50.404c-74.705-3.892-109.664,12.637-141.689,42.691
	c-35.765,33.567-21.398,71.854, 7.74,73.801c 29.122,1.944, 46.607-33.013, 62.15-42.736c 15.524-9.688, 74.594-31.76, 105.794,3.908
	c 33.976,38.828-22.594,58.92-64.059,65.002c-59.203,8.766-133.95,40.792-128.135,103.907c 5.816,63.074, 53.582,95.414, 103.85,99.976
	c 64.077,5.817, 105.791-9.707, 138.785-37.86c 38.15-32.529, 17.508-68.894-6.799-71.82c-24.212-2.909-51.404,53.504-104.791,54.352
	c-55.027,0.864-92.217-57.261-24.286-73.784c 67.966-16.505, 140.75-23.286, 166.961-85.417
	C 418.49,120.287, 351.507,54.299, 276.74,50.404z" />
<glyph unicode="&#xe007;" d="M 432.00,320.00c-17.60,0.00-32.00-14.40-32.00-32.00l0.00-128.00 c0.00-17.60, 14.40-32.00, 32.00-32.00s 32.00,14.40, 32.00,32.00L 464.00,288.00 C 464.00,305.60, 449.60,320.00, 432.00,320.00zM 48.00,320.00c-17.60,0.00-32.00-14.40-32.00-32.00l0.00-128.00 c0.00-17.60, 14.40-32.00, 32.00-32.00s 32.00,14.40, 32.00,32.00L 80.00,288.00 C 80.00,305.60, 65.599,320.00, 48.00,320.00zM 96.00,112.00c0.00-26.51, 21.49-48.00, 48.00-48.00l 16.00,0.00 l0.00-64.00 c0.00-17.60, 14.40-32.00, 32.00-32.00s 32.00,14.40, 32.00,32.00l0.00,64.00 l 32.00,0.00 l0.00-64.00 c0.00-17.60, 14.401-32.00, 32.00-32.00s 32.00,14.40, 32.00,32.00
		l0.00,64.00 l 16.00,0.00 c 26.51,0.00, 48.00,21.49, 48.00,48.00L 384.00,288.00 L 96.00,288.00 L 96.00,112.00 zM 299.299,435.253l 20.252,38.903c 1.016,1.951, 0.25,4.379-1.701,5.395s-4.379,0.25-5.395-1.701l-20.559-39.493
		C 275.797,444.581, 258.299,448.00, 240.00,448.00c-18.298,0.00-35.796-3.419-51.898-9.643L 167.544,477.849c-1.016,1.951-3.443,2.717-5.395,1.701
		s-2.717-3.443-1.701-5.395l 20.25-38.904c-45.315-20.509-78.12-63.792-83.81-115.252l 286.22,0.00 
		C 377.42,371.461, 344.615,414.743, 299.299,435.253z M 176.00,344.80c-12.813,0.00-23.20,10.387-23.20,23.20c0.00,12.813, 10.387,23.20, 23.20,23.20
		s 23.20-10.387, 23.20-23.20C 199.199,355.187, 188.813,344.80, 176.00,344.80z M 304.00,344.80c-12.813,0.00-23.201,10.387-23.201,23.20
		c0.00,12.813, 10.389,23.20, 23.201,23.20s 23.199-10.387, 23.199-23.20C 327.199,355.187, 316.813,344.80, 304.00,344.80z" />
<glyph unicode="&#xe00c;" d="M 206.115,224.043c-23.854,12.259-47.043,18.479-68.94,18.479c-2.978,0.00-5.976-0.09-8.974-0.354
		c-27.94-2.312-53.461-9.684-69.875-15.414c-4.354-1.599-8.817-3.288-13.415-5.153L0.00,65.904
		c 30.851,11.416, 58.146,16.969, 83.135,16.969c 40.423,0.00, 69.764-15.104, 93.996-30.652c 11.481,38.959, 39.022,133.045, 47.241,161.162
		C 218.397,217.025, 212.334,220.668, 206.115,224.043zM 264.174,184.465l-45.223-157.074c 13.416-7.686, 58.549-32.025, 93.106-32.025c 27.896,0.00, 59.126,7.148, 95.417,21.896
		l 43.178,150.988c-29.316-9.461-57.438-14.26-83.732-14.26C 318.945,153.99, 285.363,169.539, 264.174,184.465zM 146.411,295.605c 38.559-0.399, 67.076-15.104, 90.708-30.251l 46.376,158.672c-9.773,5.598-35.403,19.547-53.929,24.30
		c-12.193,2.842-25.01,4.308-38.602,4.308c-25.898-0.488-54.194-6.973-86.444-19.90l-44.22-155.298
		c 32.404,12.218, 60.322,18.17, 86.043,18.17C 146.366,295.605, 146.411,295.605, 146.411,295.605zM 512.00,380.938c-29.407-11.416-58.104-17.233-85.514-17.233c-45.843,0.00-79.646,15.901-101.547,31.183L 278.964,235.77
		c 30.873-19.854, 64.145-29.939, 99.061-29.939c 28.474,0.00, 57.97,6.84, 87.731,20.344l-0.091,1.111l 1.867,0.443L 512.00,380.938z" />
<glyph unicode="&#xe00d;" d="M 256.50,96.00c-66.156,0.00-130.837,9.686-193.05,28.849l 10.124,30.371C 132.526,137.141, 193.812,128.00, 256.50,128.00
		c 8.172,0.00, 16.319,0.164, 24.441,0.474C 283.054,167.254, 288.00,192.00, 288.00,192.00s-32.00,0.00-96.00,0.00c0.00,87.505, 29.909,165.027, 62.465,223.50L0.00,415.50 l0.00-383.00 
		l 283.088,0.00 c-2.336,22.842-3.152,44.43-3.077,63.92C 272.195,96.146, 264.358,96.00, 256.50,96.00z M 96.00,352.00l 32.00,0.00 l0.00-64.00 L 96.00,288.00 L 96.00,352.00 zM 512.00,415.50L 298.435,415.50 c-0.974-1.598-1.947-3.207-2.92-4.843c-19.208-32.286-34.468-65.379-45.358-98.36
		c-9.103-27.566-15.151-55.116-18.086-82.297l 102.429,0.00 l-9.229-45.417c-0.157-0.808-4.085-21.422-6.10-53.471
		c 40.932,4.063, 81.111,12.103, 120.257,24.107l 10.124-30.371c-42.783-13.178-86.732-21.874-131.526-26.021
		c-0.018-2.188-0.028-4.395-0.021-6.64c 0.062-20.315, 1.173-40.285, 3.301-59.688L 512.00,32.499 L 512.00,415.50 z M 416.00,288.00l-32.00,0.00 l0.00,64.00 l 32.00,0.00 L 416.00,288.00 zM 293.632-32.00l 39.084,0.00 c-2.73,10.907-5.094,22.096-7.069,33.543c-1.747,10.126-3.191,20.46-4.343,30.957l-38.216,0.00 
		C 285.204,11.811, 288.563-9.901, 293.632-32.00zM 344.224,480.00l-48.198,0.00 c-12.875-17.435-27.466-39.185-41.56-64.50l 43.969,0.00 C 315.272,443.156, 332.017,465.201, 344.224,480.00z" />
<glyph unicode="&#xe00e;" d="M 395.749,207.954c-0.647,64.841, 52.879,95.938, 55.271,97.483c-30.076,44.01-76.925,50.039-93.621,50.736
		c-39.871,4.037-77.798-23.474-98.033-23.474c-20.184,0.00-51.409,22.877-84.476,22.276c-43.458-0.646-83.529-25.269-105.906-64.19
		c-45.152-78.349-11.563-194.42, 32.445-257.963c 21.504-31.102, 47.146-66.038, 80.813-64.79c 32.421,1.294, 44.681,20.979, 83.878,20.979
		c 39.197,0.00, 50.214-20.979, 84.525-20.335c 34.887,0.648, 56.991,31.699, 78.346,62.898c 24.695,36.084, 34.863,71.019, 35.462,72.813
		C 463.679,104.74, 396.423,130.505, 395.749,207.954zM 331.281,398.239C 349.15,419.918, 361.211,449.995, 357.921,480.00c-25.739-1.048-56.939-17.145-75.405-38.775
		c-16.571-19.188-31.074-49.813-27.187-79.218C 284.062,359.765, 313.393,376.609, 331.281,398.239z" />
<glyph unicode="&#xe00f;" d="M 283.828,111.542c-40.972-19.059-79.079-18.858-104.67-17.01c-30.526,2.205-55.079,10.562-65.871,17.866
		c-6.65,4.503-15.692,2.761-20.195-3.891c-4.502-6.651-2.76-15.693, 3.891-20.195c 17.349-11.743, 48.034-20.477, 80.081-22.79
		c 5.433-0.392, 11.399-0.639, 17.823-0.639c 27.891,0.00, 63.313,2.658, 101.21,20.285c 7.282,3.389, 10.439,12.037, 7.052,19.32
		C 299.761,111.771, 291.111,114.924, 283.828,111.542zM 445.474,133.092c 1.393,126.344, 14.381,365.103-227.485,345.806C-20.811,459.677, 42.507,207.414, 38.948,122.923
		C 35.794,78.23, 20.959,23.599,0.00-32.00l 64.55,0.00 c 6.633,23.561, 11.512,46.86, 13.616,69.075c 3.891-2.714, 8.054-5.337, 12.497-7.85
		c 7.229-4.259, 13.442-9.922, 20.02-15.917c 15.372-14.009, 32.795-29.887, 66.856-31.876c 2.286-0.131, 4.587-0.197, 6.838-0.197
		c 34.448,0.00, 58.007,15.077, 76.939,27.191c 9.07,5.806, 16.909,10.82, 24.282,13.226c 20.955,6.56, 39.266,17.148, 52.952,30.626
		c 2.138,2.104, 4.121,4.269, 5.981,6.474c 7.623-27.939, 18.059-59.379, 29.644-90.752L 512.00-32.00 
		C 478.913,19.112, 444.782,69.187, 445.474,133.092z M 62.055,201.824c0.00,0.008,0.00,0.015-0.001,0.023
		c-2.373,41.231, 17.355,75.916, 44.063,77.468c 26.706,1.553, 50.28-30.614, 52.652-71.846c0.00-0.007, 0.002-0.015, 0.002-0.022
		c 0.128-2.223, 0.184-4.423, 0.185-6.603c-8.462-2.128-16.096-5.218-22.936-8.815c-0.026,0.306-0.046,0.608-0.076,0.915
		c0.00,0.004,0.00,0.009,0.00,0.013c-2.285,23.405-14.786,41.08-27.926,39.479c-13.14-1.602-21.94-21.875-19.656-45.279
		c0.00-0.005, 0.002-0.009, 0.002-0.013c 0.996-10.204, 3.934-19.318, 8.021-26.222c-1.017-0.802-3.892-2.906-7.203-5.328
		c-2.485-1.817-5.51-4.029-9.157-6.715C 70.084,161.926, 63.272,180.669, 62.055,201.824z M 332.63,99.911
		c-0.95-21.793-29.454-42.296-55.791-50.522l-0.148-0.048c-10.95-3.551-20.714-9.80-31.052-16.415
		c-17.366-11.112-35.323-22.604-61.261-22.604c-1.702,0.00-3.447,0.052-5.163,0.148c-23.758,1.389-34.871,11.516-48.94,24.338
		c-7.421,6.763-15.095,13.757-24.988,19.562l-0.212,0.122c-21.353,12.052-34.606,27.041-35.454,40.097
		c-0.421,6.49, 2.469,12.109, 8.591,16.70c 13.318,9.986, 22.239,16.511, 28.142,20.829c 6.555,4.794, 8.534,6.24, 10.00,7.632
		c 1.048,0.993, 2.182,2.094, 3.402,3.281c 12.223,11.887, 32.68,31.781, 64.075,31.781c 19.202,0.00, 40.449-7.40, 63.085-21.951
		c 10.662-6.939, 19.941-10.143, 31.69-14.20c 8.078-2.789, 17.234-5.951, 29.496-11.202l 0.198-0.082
		C 319.74,122.675, 333.248,114.095, 332.63,99.911z M 326.323,151.097c-2.20,1.107-4.487,2.16-6.872,3.143
		c-11.053,4.728-19.916,7.937-27.267,10.499c 4.058,7.947, 6.58,17.86, 6.812,28.621c0.00,0.005,0.00,0.011,0.00,0.015
		c 0.563,26.187-12.644,47.448-29.498,47.488c-16.855,0.039-30.975-21.157-31.538-47.343c0.00-0.005,0.00-0.009,0.00-0.014
		c-0.019-0.857-0.021-1.708-0.01-2.555c-10.381,4.776-20.59,8.245-30.583,10.38c-0.046,0.984-0.102,1.966-0.122,2.96
		c0.00,0.008,0.00,0.018,0.00,0.025c-0.969,47.706, 28.301,87.195, 65.377,88.201c 37.075,1.007, 67.914-36.85, 68.886-84.555
		c0.00-0.009,0.00-0.019,0.00-0.026C 341.945,186.363, 336.178,166.503, 326.323,151.097z" />
<glyph unicode="&#xe010;" d="M 256.00,480.00C 114.615,480.00,0.00,365.385,0.00,224.00s 114.615-256.00, 256.00-256.00s 256.00,114.615, 256.00,256.00S 397.385,480.00, 256.00,480.00z M 408.028,71.972
	c-19.759-19.758-42.756-35.266-68.354-46.093c-6.503-2.75-13.107-5.164-19.80-7.246L 319.874,57.00 c0.00,20.167-6.917,35.00-20.75,44.50
	c 8.667,0.833, 16.625,2.00, 23.875,3.50s 14.917,3.667, 23.00,6.50s 15.333,6.208, 21.75,10.125s 12.583,9.00, 18.50,15.25s 10.875,13.333, 14.875,21.25
	s 7.167,17.417, 9.50,28.50s 3.50,23.292, 3.50,36.625c0.00,25.833-8.417,47.833-25.25,66.00c 7.667,20.00, 6.833,41.75-2.50,65.25l-6.25,0.75
	c-4.333,0.50-12.125-1.333-23.375-5.50s-23.875-11.00-37.875-20.50c-19.833,5.50-40.417,8.25-61.75,8.25c-21.50,0.00-42.00-2.75-61.50-8.25
	c-8.833,6.00-17.208,10.958-25.125,14.875c-7.917,3.917-14.25,6.583-19.00,8.00s-9.167,2.292-13.25,2.625s-6.708,0.417-7.875,0.25
	s-2.00-0.333-2.50-0.50c-9.333-23.667-10.167-45.417-2.50-65.25c-16.833-18.167-25.25-40.167-25.25-66.00c0.00-13.333, 1.167-25.542, 3.50-36.625
	s 5.50-20.583, 9.50-28.50s 8.958-15.00, 14.875-21.25s 12.083-11.333, 18.50-15.25s 13.667-7.292, 21.75-10.125s 15.75-5.00, 23.00-6.50
	s 15.208-2.667, 23.875-3.50c-13.667-9.333-20.50-24.167-20.50-44.50l0.00-39.115 c-7.549,2.247-14.99,4.902-22.30,7.994
	c-25.597,10.827-48.594,26.335-68.353,46.093c-19.758,19.759-35.267,42.756-46.093,68.354C 46.679,166.805, 41.00,194.957, 41.00,224.00
	s 5.679,57.195, 16.879,83.675c 10.827,25.597, 26.335,48.594, 46.093,68.353s 42.756,35.267, 68.353,46.093
	C 198.805,433.321, 226.957,439.00, 256.00,439.00s 57.195-5.679, 83.675-16.879c 25.598-10.827, 48.595-26.335, 68.354-46.093
	c 19.758-19.758, 35.266-42.756, 46.093-68.353C 465.321,281.195, 471.00,253.043, 471.00,224.00s-5.679-57.195-16.879-83.675
	C 443.294,114.728, 427.786,91.73, 408.028,71.972z" />
<glyph unicode="&#xe011;" d="M 256.00,480.00C 114.615,480.00,0.00,365.385,0.00,224.00s 114.615-256.00, 256.00-256.00s 256.00,114.615, 256.00,256.00S 397.385,480.00, 256.00,480.00z M 139.589,78.896
	c-23.297,0.00-42.229,17.821-42.229,39.907c0.00,21.963, 18.931,39.985, 42.229,39.985c 23.384,0.00, 42.292-18.022, 42.292-39.985
	C 181.881,96.718, 162.971,78.896, 139.589,78.896z M 245.742,78.548c0.00,37.689-15.461,73.166-43.466,99.704
	c-28.04,26.605-65.275,41.289-104.868,41.289l0.00,57.672 c 115.441,0.00, 209.41-89.111, 209.411-198.665L 245.742,78.548 z M 353.645,78.548
	c0.00,134.088-114.945,243.204-256.164,243.204l0.00,57.70 c 174.862,0.00, 317.159-135.034, 317.159-300.904L 353.645,78.548 z" />
<glyph unicode="&#xe012;" d="M 256.00,480.00C 114.615,480.00,0.00,365.385,0.00,224.00s 114.615-256.00, 256.00-256.00s 256.00,114.615, 256.00,256.00S 397.385,480.00, 256.00,480.00z M 148.00,140.00
	c-46.392,0.00-84.00,37.608-84.00,84.00c0.00,46.392, 37.608,84.00, 84.00,84.00c 46.393,0.00, 84.00-37.608, 84.00-84.00C 232.00,177.608, 194.393,140.00, 148.00,140.00z M 364.00,140.00
	c-46.393,0.00-84.00,37.608-84.00,84.00c0.00,46.392, 37.607,84.00, 84.00,84.00s 84.00-37.608, 84.00-84.00C 448.00,177.608, 410.393,140.00, 364.00,140.00z" />
<glyph unicode="&#xe013;" d="M 209.304,145.838c-2.208,1.536-4.496,3.129-6.858,4.798c-6.883,2.123-14.152,3.238-21.632,3.318
		c-0.315,0.003-0.62,0.005-0.93,0.005c-34.69,0.00-65.121-21.302-65.121-45.585c0.00-26.444, 25.998-47.159, 59.187-47.159
		c 24.12,0.00, 41.903,4.632, 52.854,13.766c 8.954,7.469, 13.307,17.872, 13.307,31.804c0.00,2.858-0.338,5.776-1.004,8.675
		C 236.274,126.641, 226.928,133.574, 209.304,145.838zM 256.00,480.00C 114.615,480.00,0.00,365.385,0.00,224.00s 114.615-256.00, 256.00-256.00s 256.00,114.615, 256.00,256.00S 397.385,480.00, 256.00,480.00z M 256.812,50.464
		c-20.807-17.217-49.387-26.317-82.65-26.317c-30.692,0.00-59.188,6.449-80.238,18.16C 70.113,55.553, 57.00,74.94, 57.00,96.898
		c0.00,22.268, 12.208,44.534, 33.493,61.089c 21.139,16.442, 48.776,25.613, 77.959,25.898c-3.125,6.363-4.70,12.951-4.70,19.712
		c0.00,3.209, 0.352,6.468, 1.051,9.76c-23.559,1.026-44.831,10.012-60.295,25.562c-16.037,16.127-24.869,38.143-24.869,61.991
		c0.00,22.806, 11.474,45.612, 31.479,62.572c 19.325,16.383, 44.694,25.779, 69.603,25.779l 142.047,0.00 l-33.512-37.29l-32.309,0.00 
		c 9.861-13.337, 15.57-31.501, 15.57-51.737c0.00-23.887-11.835-46.484-33.324-63.629c-16.244-12.96-16.324-16.044-16.325-22.657
		c 0.613-4.122, 11.704-16.779, 23.409-25.239c 29.697-21.444, 40.74-42.468, 40.74-77.566
		C 287.018,88.464, 276.008,66.347, 256.812,50.464z M 384.00,288.00l0.00-64.00 l-32.00,0.00 l0.00,64.00 l-64.00,0.00 l0.00,32.00 l 64.00,0.00 L 352.00,384.00 l 32.00,0.00 l0.00-64.00 l 64.00,0.00 l0.00-32.00 L 384.00,288.00 zM 204.776,253.153c 8.643,9.826, 12.456,26.164, 10.20,43.705c-3.979,30.90-25.348,56.596-47.637,57.28
		c-0.285,0.008-0.57,0.013-0.856,0.013c-7.519,0.00-14.24-3.124-19.438-9.033c-8.519-9.686-12.116-25.26-9.867-42.729
		c 3.979-30.903, 25.792-57.573, 47.635-58.24C 192.491,243.909, 199.394,247.033, 204.776,253.153z" />
<glyph unicode="&#xe014;" d="M 446.141,117.407c 0.852,10.12, 21.951,23.983, 21.934,34.12c-0.049,10.643-18.482,28.455-17.086,39.007
	c 1.104,8.37, 16.555,20.793, 17.059,29.245c 0.898,15.353-19.852,45.40-34.119,51.174c-22.643,9.168-137.705,4.883-137.705,4.883
	c-11.246,19.653, 20.035,68.201, 28.639,89.162c 12.631,30.719, 10.504,71.466-5.471,92.399C 299.879,482.98, 264.063,484.68, 263.325,473.238
	c-5.336-83.01-21.229-106.053-42.505-122.455c-12.786-9.863-23.954-18.497-29.854-33.528
	c-36.261-92.354-65.52-122.037-79.528-125.254L 64.00,192.001 l0.00-198.885 l 145.721-19.501c0.00,0.00, 133.455-12.632, 175.482,0.00
	c 13.223,3.966, 36.039,23.818, 41.432,36.556c 3.074,7.315-1.197,24.622, 2.443,31.677c 5.371,10.458, 28.051,23.559, 28.027,37.771
	C 457.082,89.754, 445.276,107.298, 446.141,117.407z" />
<glyph unicode="&#xe015;" d="M 468.051,228.233c-0.50,8.447-15.959,20.854-17.063,29.237c-1.398,10.544, 17.047,28.369, 17.076,39.00
	c 0.023,10.137-21.072,24.002-21.93,34.127c-0.861,10.104, 10.953,27.644, 10.969,37.781c 0.025,14.216-22.658,27.314-28.033,37.771
	c-3.631,7.059, 0.643,24.368-2.443,31.681c-5.385,12.739-28.203,32.595-41.414,36.556c-42.035,12.629-175.483,0.00-175.483,0.00L 64.00,454.89
	L 64.00,256.00 l 47.445,0.00 c 13.993-7.782, 43.261-32.282, 79.526-124.636c 5.90-15.034, 17.073-24.288, 29.854-34.143
	c 21.282-16.406, 37.157-39.442, 42.493-122.459c 0.743-11.443, 36.557-9.74, 56.064,15.837c 15.975,20.931, 18.109,61.682, 5.484,92.402
	c-8.604,20.962-39.895,69.511-28.643,89.171c0.00,0.00, 115.066-4.285, 137.701,4.871C 448.192,182.817, 468.942,212.873, 468.051,228.233z" />
<glyph unicode="&#xe016;" d="M 160.00,128.00c 8.80-8.80, 23.637-8.363, 32.971,0.971L 351.03,287.029C 360.364,296.363, 360.80,311.20, 352.00,320.00
		s-23.637,8.363-32.971-0.971L 160.971,160.971C 151.637,151.637, 151.20,136.80, 160.00,128.00zM 238.444,142.444c 2.28-4.525, 3.495-9.58, 3.495-14.848c0.00-8.808-3.372-17.03-9.496-23.154l-81.691-81.691
		c-6.124-6.124-14.347-9.496-23.154-9.496s-17.03,3.372-23.154,9.496l-49.691,49.691c-6.124,6.124-9.496,14.347-9.496,23.154
		s 3.372,17.03, 9.496,23.154l 81.691,81.691c 6.124,6.124, 14.347,9.497, 23.154,9.497c 5.268,0.00, 10.322-1.215, 14.848-3.495l 32.669,32.669
		c-13.935,10.705-30.72,16.08-47.517,16.08c-19.993,0.00-39.986-7.583-55.154-22.751l-81.691-81.691
		c-30.335-30.335-30.335-79.974,0.00-110.309l 49.691-49.691C 87.611-24.416, 107.604-32.00, 127.597-32.00
		c 19.994,0.00, 39.987,7.584, 55.154,22.751l 81.691,81.691c 27.91,27.91, 30.119,72.149, 6.672,102.672L 238.444,142.444zM 489.249,407.558l-49.691,49.691C 424.391,472.417, 404.398,480.00, 384.404,480.00c-19.993,0.00-39.986-7.583-55.154-22.751l-81.691-81.691
		c-27.91-27.91-30.119-72.149-6.671-102.671l 32.669,32.67c-2.279,4.525-3.494,9.58-3.494,14.847c0.00,8.808, 3.372,17.03, 9.496,23.154
		l 81.691,81.691c 6.124,6.124, 14.347,9.497, 23.154,9.497s 17.03-3.373, 23.154-9.497l 49.691-49.691
		c 6.124-6.124, 9.496-14.347, 9.496-23.154s-3.372-17.03-9.496-23.154l-81.691-81.691c-6.124-6.124-14.347-9.496-23.154-9.496
		c-5.268,0.00-10.322,1.215-14.848,3.495l-32.669-32.669c 13.936-10.705, 30.72-16.08, 47.517-16.08c 19.994,0.00, 39.987,7.584, 55.154,22.751
		l 81.691,81.691C 519.584,327.584, 519.584,377.223, 489.249,407.558z" />
<glyph unicode="&#xe017;" d="M 238.444,142.443c 2.28-4.524, 3.495-9.579, 3.495-14.848c0.00-8.808-3.372-17.029-9.496-23.154l-81.69-81.69
		c-6.124-6.124-14.348-9.496-23.154-9.496s-17.03,3.372-23.154,9.496l-49.69,49.69c-6.124,6.125-9.496,14.348-9.496,23.154
		s 3.372,17.03, 9.496,23.154l 81.69,81.691c 6.124,6.123, 14.348,9.496, 23.154,9.496c 5.269,0.00, 10.322-1.215, 14.848-3.494l 32.669,32.668
		c-13.935,10.705-30.72,16.08-47.517,16.08c-19.993,0.00-39.986-7.583-55.154-22.751l-81.69-81.691
		c-30.335-30.335-30.335-79.975,0.00-110.309l 49.69-49.691c 15.167-15.166, 35.16-22.75, 55.153-22.75
		c 19.994,0.00, 39.987,7.584, 55.154,22.751l 81.69,81.69c 27.91,27.91, 30.119,72.149, 6.672,102.673L 238.444,142.443zM 489.248,407.558l-49.69,49.691C 424.391,472.417, 404.398,480.00, 384.404,480.00c-19.993,0.00-39.985-7.583-55.153-22.751l-81.691-81.691
		c-27.91-27.91-30.119-72.149-6.671-102.671l 32.669,32.67c-2.279,4.525-3.494,9.58-3.494,14.847c0.00,8.808, 3.372,17.03, 9.496,23.154
		l 81.691,81.691c 6.123,6.124, 14.347,9.497, 23.153,9.497c 8.808,0.00, 17.03-3.373, 23.154-9.497l 49.69-49.691
		c 6.124-6.124, 9.496-14.347, 9.496-23.154c0.00-8.807-3.372-17.03-9.496-23.154l-81.69-81.691c-6.124-6.124-14.347-9.496-23.154-9.496
		c-5.268,0.00-10.322,1.215-14.848,3.495l-32.669-32.669c 13.936-10.705, 30.72-16.08, 47.517-16.08c 19.994,0.00, 39.987,7.584, 55.154,22.752
		l 81.69,81.69C 519.584,327.584, 519.584,377.223, 489.248,407.558zM 116.684,340.688L 20.687,436.685L 43.315,459.313L 139.312,363.316zM 192.00,480.00L 224.00,480.00L 224.00,384.00L 192.00,384.00zM0.00,288.00L 96.00,288.00L 96.00,256.00L0.00,256.00zM 395.316,107.312L 491.314,11.314L 468.686-11.314L 372.688,84.684zM 288.00,64.00L 320.00,64.00L 320.00-32.00L 288.00-32.00zM 416.00,192.00L 512.00,192.00L 512.00,160.00L 416.00,160.00z" />
<glyph unicode="&#xe018;" d="M 448.00,128.00L 448.00,64.00L 64.00,64.00L 64.00,128.00L0.00,128.00L0.00,0.00L 512.00,0.00L 512.00,128.00 	zM 128.00,256.00L 224.00,256.00L 224.00,96.00L 288.00,96.00L 288.00,256.00L 384.00,256.00L 256.00,448.00 	z" />
<glyph unicode="&#xe019;" d="M 448.00,128.00L 448.00,64.00L 64.00,64.00L 64.00,128.00L0.00,128.00L0.00,0.00L 512.00,0.00L 512.00,128.00 	zM 384.00,288.00L 288.00,288.00L 288.00,448.00L 224.00,448.00L 224.00,288.00L 128.00,288.00L 256.00,96.00 	z" />
<glyph unicode="&#xe01a;" d="M 254.059,418.977C 205.881,476.227, 169.369,480.00, 96.00,480.00l0.00-256.00 c 128.267,64.00, 142.636-8.335, 223.506-1.023
		C 399.234,230.197, 467.031,291.564, 512.00,352.00C 384.644,322.547, 320.54,339.977, 254.059,418.977zM0.00,480.00L 64.00,480.00L 64.00-32.00L0.00-32.00z" />
<glyph unicode="&#xe01b;" d="M 348.916,316.476l-32.476,32.461L 154.035,186.566c-26.907-26.896-26.907-70.524,0.00-97.422
	c 26.902-26.896, 70.53-26.896, 97.437,0.00l 194.886,194.854c 44.857,44.831, 44.857,117.531,0.00,162.363
	c-44.833,44.852-117.556,44.852-162.391,0.00L 79.335,241.788l 0.017-0.016c-0.145-0.152-0.306-0.288-0.438-0.423
	c-62.551-62.548-62.551-163.928,0.00-226.453c 62.527-62.528, 163.934-62.528, 226.494,0.00c 0.137,0.137, 0.258,0.284, 0.41,0.438l 0.016-0.017
	l 139.666,139.646l-32.493,32.46L 273.35,47.792l-0.008,0.00 c-0.148-0.134-0.282-0.285-0.423-0.422
	c-44.537-44.529-116.99-44.529-161.538,0.00c-44.531,44.521-44.531,116.961,0.00,161.489c 0.152,0.152, 0.302,0.291, 0.444,0.423l-0.023,0.03
	l 204.64,204.583c 26.856,26.869, 70.572,26.869, 97.443,0.00c 26.856-26.867, 26.856-70.574,0.00-97.42L 218.999,121.625
	c-8.968-8.961-23.527-8.961-32.486,0.00c-8.947,8.943-8.947,23.516,0.00,32.46L 348.916,316.476z" />
<glyph unicode="&#xe01c;" d="M 128.00,320.00A128.00,128.00 10260.00 1,0 384.00,320A128.00,128.00 10260.00 1,0 128.00,320zM 384.00,160.00L 128.00,160.00 C 57.308,160.00,0.00,102.691,0.00,32.00l0.00-32.00 l 4.033,0.00 l 503.934,0.00 L 512.00,0.00 l0.00,32.00 C 512.00,102.691, 454.692,160.00, 384.00,160.00z" />
<glyph unicode="&#xe01d;" d="M0.00,416.00l0.00-384.00 l 512.00,0.00 L 512.00,416.00 L0.00,416.00 z M 480.00,64.00l-32.00,0.00 l-96.00,144.00l-64.00-48.00L 160.00,320.00L 64.00,64.00L 32.00,64.00 L 32.00,384.00 l 448.00,0.00 L 480.00,64.00 zM 352.00,304.00A48.00,48.00 10260.00 1,0 448.00,304A48.00,48.00 10260.00 1,0 352.00,304z" />
<glyph unicode="&#xe01e;" d="M 256.00,480.00C 114.614,480.00,0.00,444.184,0.00,400.00l0.00-64.00 c0.00-44.183, 114.611-80.00, 256.00-80.00c 141.385,0.00, 256.00,35.817, 256.00,80.00L 512.00,400.00 C 512.00,444.184, 397.385,480.00, 256.00,480.00
		zM 255.193,224.00C 140.566,224.00, 43.94,247.543, 11.32,280.00C 3.705,272.423,0.00,264.361,0.00,256.00l0.00-64.00 c0.00-44.184, 114.611-80.00, 256.00-80.00
		c 141.385,0.00, 256.00,35.816, 256.00,80.00l0.00,64.00 c0.00,8.361-4.516,16.423-12.131,24.00C 467.25,247.543, 369.82,224.00, 255.193,224.00zM 255.193,80.00C 140.566,80.00, 43.94,103.544, 11.32,136.00C 3.705,128.424,0.00,120.361,0.00,112.00l0.00-64.00 c0.00-44.183, 114.611-80.00, 256.00-80.00
		c 141.385,0.00, 256.00,35.817, 256.00,80.00l0.00,64.00 c0.00,8.361-4.516,16.424-12.131,24.00C 467.25,103.544, 369.82,80.00, 255.193,80.00z" />
<glyph unicode="&#xe01f;" d="M 416.00,448.00L 96.00,448.00 L0.00,352.00l0.00-336.00 c0.00-8.837, 7.163-16.00, 16.00-16.00l 480.00,0.00 c 8.836,0.00, 16.00,7.163, 16.00,16.00L 512.00,352.00 L 416.00,448.00z M 320.00,160.00l0.00-96.00 L 192.00,64.00 l0.00,96.00 L 96.00,160.00 l 160.00,128.00
	l 160.00-128.00L 320.00,160.00 z M 77.255,384.00l 32.00,32.00l 293.488,0.00 l 32.00-32.00L 77.255,384.00 z" />
<glyph unicode="&#xe020;" d="M 416.00,448.00L 96.00,448.00 L0.00,352.00l0.00-336.00 c0.00-8.837, 7.163-16.00, 16.00-16.00l 480.00,0.00 c 8.836,0.00, 16.00,7.163, 16.00,16.00L 512.00,352.00 L 416.00,448.00z M 256.00,64.00L 96.00,192.00l 96.00,0.00 l0.00,96.00 l 128.00,0.00 l0.00-96.00 l 96.00,0.00 
	L 256.00,64.00z M 77.255,384.00l 32.00,32.00l 293.489,0.00 l 32.00-32.00L 77.255,384.00 z" />
<glyph unicode="&#xe021;" d="M 255.993,471.963C 114.606,471.963, 0.001,385.424, 0.001,278.684c0.00-83.391, 69.951-154.469, 167.963-181.565
	c 1.438-8.104, 3.25-19.646, 3.25-26.787c0.00-33.625-12.867-65.518-35.788-94.295c 35.444,14.928, 85.475,62.898, 116.473,109.432
	c 1.367-0.016, 2.729-0.084, 4.095-0.084c 141.40,0.00, 256.007,86.539, 256.007,193.299C 512.002,385.424, 397.395,471.963, 255.993,471.963z" />
<glyph unicode="&#xe022;" d="M 224.00,92.186L 224.00-32.00 L 32.00,160.00l 192.00,192.00l0.00-126.912 C 447.375,219.848, 437.794,376.984, 380.931,480.00
	C 521.286,328.293, 491.481,85.215, 224.00,92.186z" />
<glyph unicode="&#xe023;" d="M 429.406,480.00C 486.27,376.984, 511.375,219.848, 288.00,225.088L 288.00,352.00 L 96.00,160.00l 192.00-192.00L 288.00,92.186 C 512.00,92.186, 569.762,328.293, 429.406,480.00
		zM 192.00,306.745L 192.00,352.00L0.00,160.00L 192.00-32.00L 192.00,13.255L 45.255,160.00 	z" />
<glyph unicode="&#xe024;" d="M 507.882,411.883L 448.00,352.00l-64.00,64.00l 59.882,59.883C 435.057,478.557, 425.698,480.00, 416.00,480.00c-53.021,0.00-96.00-42.98-96.00-96.00
	c0.00-9.697, 1.442-19.057, 4.116-27.882L 123.882,155.883C 115.057,158.557, 105.698,160.00, 96.00,160.00c-53.021,0.00-96.00-42.98-96.00-96.00
	c0.00-9.697, 1.442-19.058, 4.117-27.882L 64.00,96.00l 64.00-64.00l-59.883-59.882C 76.943-30.556, 86.302-32.00, 96.00-32.00c 53.02,0.00, 96.00,42.981, 96.00,96.00
	c0.00,9.698-1.444,19.059-4.118,27.883l 200.234,200.235C 396.943,289.444, 406.302,288.00, 416.00,288.00c 53.02,0.00, 96.00,42.981, 96.00,96.00
	C 512.00,393.698, 510.556,403.058, 507.882,411.883z" />
<glyph unicode="&#xe025;" d="M 466.895,174.875c-26.863,46.527-10.708,106.152, 36.076,133.244l-50.313,87.146c-14.375-8.427-31.088-13.259-48.923-13.259
	c-53.768,0.00-97.354,43.873-97.354,97.995L 205.752,480.001 c 0.133-16.705-4.037-33.641-12.979-49.126
	c-26.862-46.528-86.578-62.351-133.431-35.379L 9.03,308.35c 14.485-8.236, 27.025-20.294, 35.943-35.739
	c 26.819-46.454, 10.756-105.96-35.854-133.112l 50.313-87.146c 14.325,8.348, 30.958,13.127, 48.70,13.127
	c 53.598,0.00, 97.072-43.596, 97.35-97.479l 100.627,0.00 c-0.043,16.537, 4.136,33.285, 12.983,48.609
	c 26.818,46.453, 86.388,62.297, 133.207,35.506l 50.313,87.145C 488.222,147.494, 475.766,159.51, 466.895,174.875z M 256.00,120.334
	c-57.254,0.00-103.668,46.412-103.668,103.667c0.00,57.254, 46.413,103.667, 103.668,103.667c 57.254,0.00, 103.666-46.413, 103.666-103.667
	C 359.665,166.746, 313.254,120.334, 256.00,120.334z" />
<glyph unicode="&#xe026;" d="M 131.07,480.00C 74.206,376.984, 64.625,219.848, 288.00,225.088L 288.00,352.00 l 192.00-192.00L 288.00-32.00L 288.00,92.186 C 20.52,85.215-9.286,328.293, 131.07,480.00z" />
<glyph unicode="&#xe027;" d="M 352.00,384.00L 160.00,384.00 L0.00,192.00l0.00-80.00 l0.00-48.00 c0.00-17.673, 14.327-32.00, 32.00-32.00l 448.00,0.00 c 17.674,0.00, 32.00,14.327, 32.00,32.00l0.00,48.00 l0.00,80.00 L 352.00,384.00z M 384.00,192.00l-64.00-64.00L 192.00,128.00 
	l-64.00,64.00L 41.655,192.00 l 133.333,160.00l 162.024,0.00 l 133.333-160.00L 384.00,192.00 z" />
<glyph unicode="&#xe028;" d="M 64.00,16.00A48.00,48.00 8460.00 1,0 160.00,16A48.00,48.00 8460.00 1,0 64.00,16zM 384.00,16.00A48.00,48.00 8460.00 1,0 480.00,16A48.00,48.00 8460.00 1,0 384.00,16zM 480.00,224.00L 480.00,416.00 L 64.00,416.00 C 64.00,451.346, 35.347,480.00,0.00,480.00l0.00-32.00 c 17.645,0.00, 32.00-14.355, 32.00-32.00l 24.037-206.027C 41.39,198.244, 32.00,180.223, 32.00,160.00
		c0.00-35.347, 28.654-64.00, 64.00-64.00l 384.00,0.00 l0.00,32.00 L 96.00,128.00 c-17.673,0.00-32.00,14.327-32.00,32.00c0.00,0.11, 0.007,0.218, 0.008,0.328L 480.00,224.00z" />
<glyph unicode="&#xe02a;" d="M 512.00,192.00L 416.00,288.00L 416.00,384.00L 352.00,384.00L 352.00,352.00L 256.00,448.00L0.00,192.00L 64.00,192.00L 64.00,0.00L 224.00,0.00L 224.00,128.00L 288.00,128.00L 288.00,0.00L 448.00,0.00L 448.00,192.00 	z" />
<glyph unicode="&#xe029;" d="M 448.00,352.00L 448.00,416.00 L0.00,416.00 l0.00-352.00 c0.00-17.673, 14.327-32.00, 32.00-32.00l 432.00,0.00 c 26.511,0.00, 48.00,21.489, 48.00,48.00L 512.00,352.00 L 448.00,352.00 z M 416.00,64.00L 32.00,64.00 L 32.00,384.00 l 384.00,0.00 L 416.00,64.00 zM 64.00,320.00L 384.00,320.00L 384.00,288.00L 64.00,288.00zM 256.00,256.00L 384.00,256.00L 384.00,224.00L 256.00,224.00zM 256.00,192.00L 384.00,192.00L 384.00,160.00L 256.00,160.00zM 256.00,128.00L 352.00,128.00L 352.00,96.00L 256.00,96.00zM 64.00,256.00L 224.00,256.00L 224.00,96.00L 64.00,96.00z" />
<glyph unicode="&#xe02b;" d="M 488.00,456.00c-32.00,32.00-64.00,32.00-96.00,0.00l-8.00-8.00l 96.00-96.00l 8.00,8.00C 520.00,392.00, 520.00,424.00, 488.00,456.00zM 32.00,96.00L0.00-32.00l 128.00,32.00l 320.00,320.00l-96.00,96.00L 32.00,96.00z M 128.00,64.00l-32.00,32.00l 256.00,256.00l 32.00-32.00L 128.00,64.00z" />
<glyph unicode="&#xe02c;" d="M 155.755,448.451l-13.09-340.294c-17.465,8.962-39.377,12.84-62.368,9.578c-49.574-7.021-85.271-44.418-79.729-83.517
	c 5.543-39.102, 50.223-65.101, 99.795-58.078c 43.996,6.235, 77.021,36.395, 80.022,70.43l 0.01-0.019c 0.006,0.077, 0.011,0.193, 0.018,0.28
	c 0.073,0.865, 0.115,1.741, 0.147,2.611c 1.846,35.143, 13.148,302.082, 13.148,302.082l 278.355,28.679l-12.572-240.41
	c-17.863,9.942-40.822,14.371-64.964,10.95c-49.574-7.028-85.268-44.417-79.726-83.521c 5.541-39.098, 50.221-65.102, 99.795-58.071
	c 44.933,6.36, 78.41,37.682, 80.166,72.604l 0.021,0.021C 495.742,97.752, 512.00,473.005, 512.00,473.005L 155.755,448.451z" />
<glyph unicode="&#xe02d;" d="M 256.00,448.00L 32.00,352.00L 256.00,256.00L 480.00,352.00 	zM 32.00,64.00L 224.00-16.00L 224.00,208.00L 32.00,288.00 	zM 288.00-16.00L 480.00,64.00L 480.00,288.00L 288.00,208.00 	z" />
<glyph unicode="&#xe02e;" d="M 240.00,448.00L0.00,352.00l0.00-224.00 l 240.00-128.00l 240.00,128.00L 480.00,352.00 L 240.00,448.00z M 224.00,44.80L 32.00,147.20L 32.00,302.933 l 192.00-102.40L 224.00,44.80 z M 41.498,334.134L 240.00,413.535
	l 198.502-79.401L 240.00,228.267L 41.498,334.134z M 448.00,147.20L 256.00,44.80L 256.00,200.533 l 192.00,102.40L 448.00,147.20 z" />
<glyph unicode="&#xe02f;" d="M 256.00,352.00C 114.615,352.00,0.00,237.386,0.00,96.00l 32.00,0.00 c0.00,58.209, 25.903,110.363, 66.811,145.574l 108.423-135.527
	c-0.665-3.245-1.014-6.604-1.014-10.047c0.00-27.492, 22.287-49.779, 49.779-49.779c 27.493,0.00, 49.779,22.287, 49.779,49.779
	s-22.286,49.781-49.779,49.781c-3.441,0.00-6.802-0.351-10.046-1.016L 111.979,251.947c 31.528,22.688, 70.213,36.054, 112.021,36.054
	c 106.038,0.00, 192.00-85.96, 192.00-191.999l 96.00,0.00 C 512.00,237.386, 397.385,352.00, 256.00,352.00z" />
<glyph unicode="&#xe030;" d="M 256.00,352.00C 114.615,352.00,0.00,237.386,0.00,96.00l 32.00,0.00 c0.00,106.039, 85.961,192.00, 192.00,192.00c 7.167,0.00, 14.241-0.396, 21.205-1.16l-16.586-149.264
	c-13.494-8.904-22.399-24.199-22.399-41.576c0.00-27.492, 22.288-49.779, 49.78-49.779S 305.78,68.508, 305.78,96.00
	c0.00,17.377-8.904,32.672-22.398,41.576l-16.172,145.542C 352.44,263.517, 416.00,187.182, 416.00,96.00l 96.00,0.00 C 512.00,237.386, 397.385,352.00, 256.00,352.00z" />
<glyph unicode="&#xe031;" d="M 416.00,96.00l 96.00,0.00 c0.00,141.386-114.615,256.00-256.00,256.00S0.00,237.386,0.00,96.00l 32.00,0.00 c0.00,106.039, 85.961,192.00, 192.00,192.00
	c 56.409,0.00, 107.136-24.326, 142.263-63.061l-100.217-80.174c-3.245,0.665-6.604,1.016-10.046,1.016
	c-27.493,0.00-49.78-22.289-49.78-49.781s 22.287-49.779, 49.78-49.779c 27.492,0.00, 49.778,22.287, 49.778,49.779
	c0.00,3.44-0.349,6.802-1.014,10.047l 78.166,97.707C 403.803,173.031, 416.00,135.941, 416.00,96.00z" />
<glyph unicode="&#xe032;" d="M 512.00,224.00c-0.639,33.431-7.892,66.758-21.288,97.231c-13.352,30.50-32.731,58.129-56.521,80.96
	c-23.776,22.848-51.972,40.91-82.492,52.826C 321.197,466.979, 288.401,472.693, 256.00,472.00c-32.405-0.641-64.666-7.687-94.167-20.678
	c-29.524-12.948-56.271-31.735-78.367-54.788c-22.112-23.041-39.58-50.354-51.093-79.899C 20.816,287.104, 15.309,255.375, 16.00,224.00
	c 0.643-31.38, 7.482-62.574, 20.067-91.103c 12.544-28.55, 30.738-54.414, 53.055-75.774c 22.305-21.377, 48.736-38.252, 77.307-49.36
	C 194.988-3.389, 225.652-8.688, 256.00-8.00c 30.354,0.645, 60.481,7.277, 88.038,19.457c 27.575,12.141, 52.558,29.74, 73.183,51.322
	c 20.641,21.57, 36.922,47.118, 47.627,74.715c 6.517,16.729, 10.94,34.20, 13.271,51.899c 0.623-0.036, 1.249-0.06, 1.881-0.06
	c 17.673,0.00, 32.00,14.326, 32.00,32.00c0.00,0.898-0.047,1.786-0.119,2.666L 512.00,223.999 z M 461.153,139.026c-11.736-26.601-28.742-50.70-49.589-70.59
	c-20.835-19.905-45.50-35.593-72.122-45.895C 312.828,12.202, 284.297,7.315, 256.00,8.00c-28.302,0.649-56.298,6.868-81.91,18.237
	c-25.625,11.333-48.842,27.745-67.997,47.856c-19.169,20.099-34.264,43.882-44.161,69.529C 51.997,169.264, 47.318,196.729, 48.00,224.00
	c 0.651,27.276, 6.664,54.206, 17.627,78.845c 10.929,24.65, 26.749,46.985, 46.123,65.405c 19.365,18.434, 42.265,32.935, 66.937,42.428
	C 203.356,420.208, 229.755,424.681, 256.00,424.00c 26.25-0.653, 52.114-6.459, 75.781-17.017c 23.676-10.525, 45.128-25.751, 62.812-44.391
	c 17.698-18.629, 31.605-40.647, 40.695-64.344C 444.412,274.552, 448.679,249.219, 448.00,224.00l 0.119,0.00 c-0.072-0.88-0.119-1.768-0.119-2.666
	c0.00-16.506, 12.496-30.087, 28.543-31.812C 473.431,172.111, 468.278,155.113, 461.153,139.026z" />
<glyph unicode="&#xe033;" d="M 496.131,44.302L 374.855,147.449c-12.537,11.283-25.945,16.463-36.776,15.963C 366.707,196.946, 384.00,240.451, 384.00,288.00
		C 384.00,394.039, 298.039,480.00, 192.00,480.00C 85.962,480.00,0.00,394.039,0.00,288.00c0.00-106.039, 85.961-192.00, 192.00-192.00c 47.549,0.00, 91.054,17.293, 124.588,45.922
		c-0.50-10.831, 4.68-24.239, 15.963-36.776l 103.147-121.276c 17.661-19.623, 46.511-21.277, 64.11-3.678S 515.754,26.641, 496.131,44.302
		z M 192.00,160.00c-70.692,0.00-128.00,57.308-128.00,128.00S 121.308,416.00, 192.00,416.00s 128.00-57.308, 128.00-128.00S 262.693,160.00, 192.00,160.00zM 224.00,384.00L 160.00,384.00L 160.00,320.00L 96.00,320.00L 96.00,256.00L 160.00,256.00L 160.00,192.00L 224.00,192.00L 224.00,256.00L 288.00,256.00L 288.00,320.00L 224.00,320.00 	z" />
<glyph unicode="&#xe034;" d="M 496.131,44.302L 374.855,147.449c-12.537,11.283-25.945,16.463-36.776,15.963C 366.707,196.946, 384.00,240.451, 384.00,288.00
		C 384.00,394.039, 298.039,480.00, 192.00,480.00C 85.962,480.00,0.00,394.039,0.00,288.00c0.00-106.039, 85.961-192.00, 192.00-192.00c 47.549,0.00, 91.054,17.293, 124.588,45.922
		c-0.50-10.831, 4.68-24.239, 15.963-36.776l 103.147-121.276c 17.661-19.623, 46.511-21.277, 64.11-3.678S 515.754,26.641, 496.131,44.302
		z M 192.00,160.00c-70.692,0.00-128.00,57.308-128.00,128.00S 121.308,416.00, 192.00,416.00s 128.00-57.308, 128.00-128.00S 262.693,160.00, 192.00,160.00zM 96.00,320.00L 288.00,320.00L 288.00,256.00L 96.00,256.00z" />
<glyph unicode="&#xe035;" d="M 352.00,480.00c-88.365,0.00-160.00-71.634-160.00-160.00c0.00-10.013, 0.929-19.808, 2.688-29.312L0.00,96.00l0.00-96.00 c0.00-17.673, 14.327-32.00, 32.00-32.00
	l 32.00,0.00 l0.00,32.00 l 64.00,0.00 l0.00,64.00 l 64.00,0.00 l0.00,64.00 l 64.00,0.00 l 41.521,41.521C 314.526,163.363, 332.869,160.00, 352.00,160.00c 88.365,0.00, 160.00,71.634, 160.00,160.00S 440.365,480.00, 352.00,480.00z
	 M 399.937,319.937c-26.51,0.00-48.00,21.49-48.00,48.00s 21.49,48.00, 48.00,48.00s 48.00-21.49, 48.00-48.00S 426.447,319.937, 399.937,319.937z" />
<glyph unicode="&#xe036;" d="M 304.00,256.00l-16.00,0.00 l0.00,64.00 c0.00,70.692-57.308,128.00-128.00,128.00S 32.00,390.692, 32.00,320.00l0.00-64.00 L 16.00,256.00 c-8.80,0.00-16.00-7.20-16.00-16.00l0.00-224.00 c0.00-8.80, 7.20-16.00, 16.00-16.00l 288.00,0.00 
	c 8.80,0.00, 16.00,7.20, 16.00,16.00L 320.00,240.00 C 320.00,248.80, 312.80,256.00, 304.00,256.00z M 186.465,135.959L 192.00,64.00l-64.00,0.00 l 5.535,71.959
	C 120.561,144.551, 112.00,159.272, 112.00,176.00c0.00,26.51, 21.49,48.00, 48.00,48.00s 48.00-21.49, 48.00-48.00C 208.00,159.272, 199.439,144.551, 186.465,135.959z M 64.00,256.00
	l0.00,64.00 c0.00,53.02, 42.98,96.00, 96.00,96.00s 96.00-42.98, 96.00-96.00l0.00-64.00 L 64.00,256.00 z" />
<glyph unicode="&#xe037;" d="M 256.00,480.00C 114.615,480.00,0.00,365.385,0.00,224.00s 114.615-256.00, 256.00-256.00s 256.00,114.615, 256.00,256.00S 397.385,480.00, 256.00,480.00z M 256.00,32.00
	c-26.51,0.00-48.00,21.49-48.00,48.00s 21.49,48.00, 48.00,48.00s 48.00-21.49, 48.00-48.00S 282.51,32.00, 256.00,32.00z M 368.064,302.971
	c-2.495-8.446-5.956-16.459-10.406-24.007c-4.445-7.567-9.79-14.732-16.019-21.476c-6.229-6.771-13.061-13.267-20.541-19.486
	c-8.363-6.936-15.08-13.076-20.146-18.418c-5.057-5.328-8.488-9.967-10.269-13.867c-3.339-7.174-5.853-24.363-2.691-45.717l-63.959,0.00 
	c-0.525,37.938, 5.058,56.501, 11.688,70.258c 6.764,13.884, 19.377,28.554, 37.888,44.031c 8.011,6.567, 14.236,12.408, 18.675,17.479
	c 4.449,5.067, 7.841,9.599, 10.143,13.604c 2.307,4.00, 3.729,7.734, 4.271,11.211c 0.53,3.461, 0.793,7.056, 0.793,10.799
	c0.00,6.938-1.199,13.337-3.603,19.205c-2.396,5.883-5.824,10.938-10.264,15.197c-4.457,4.281-9.696,7.617-15.744,10.021
	c-6.048,2.399-12.804,3.61-20.279,3.61c-29.164,0.00-46.955-20.371-53.365-61.104l-64.027,0.00 c 1.598,17.44, 5.56,33.211, 11.876,47.353
	c 6.313,14.15, 14.576,26.151, 24.813,36.028c 10.231,9.876, 22.146,17.47, 35.754,22.796c 13.60,5.34, 28.409,8.012, 44.419,8.012
	c 17.08,0.00, 32.642-2.441, 46.696-7.332c 14.057-4.899, 26.104-11.709, 36.146-20.42c 10.057-8.713, 17.872-19.119, 23.482-31.211
	c 5.591-12.104, 8.411-25.261, 8.411-39.484C 371.804,320.454, 370.546,311.424, 368.064,302.971z" />
<glyph unicode="&#xe038;" d="M 96.00,480.00L 96.00-32.00L 256.00,128.00L 416.00-32.00L 416.00,480.00 z" />
<glyph unicode="&#xe039;" d="M 128.00,256.00L 128.00,192.001L 224.00,288.00L 224.00,96.001L 288.00,96.00L 288.001,288.00L 384.001,192.00L 384.001,256.00L 256.001,384.00 	zM0.00,224.00c0.00-141.384, 114.615-255.999, 256.00-256.00c 141.385,0.00, 256.00,114.615, 256.00,256.00c 0.001,141.385-114.614,256.00-256.00,256.00
		S0.00,365.385,0.00,224.00z M 480.001,224.00C 480.00,100.288, 379.712,0.00, 256.00,0.00C 132.288,0.001, 32.00,100.289, 32.00,224.00c0.00,123.712, 100.288,224.00, 224.00,224.00
		S 480.001,347.712, 480.001,224.00z" />
<glyph unicode="&#xe03a;" d="M 256.00,480.00C 114.615,480.00,0.00,365.385,0.00,224.00s 114.615-256.00, 256.00-256.00s 256.00,114.615, 256.00,256.00S 397.385,480.00, 256.00,480.00z M 256.00,32.00
	c-106.039,0.00-192.00,85.961-192.00,192.00c0.00,106.039, 85.961,192.00, 192.00,192.00c 106.039,0.00, 192.00-85.961, 192.00-192.00C 448.00,117.961, 362.039,32.00, 256.00,32.00z" />
<glyph unicode="&#xe03b;" d="M 256.00,480.00C 114.615,480.00,0.00,365.385,0.00,224.00s 114.615-256.00, 256.00-256.00s 256.00,114.615, 256.00,256.00S 397.385,480.00, 256.00,480.00z M 256.00,32.00
		c-106.039,0.00-192.00,85.961-192.00,192.00c0.00,106.039, 85.961,192.00, 192.00,192.00c 106.039,0.00, 192.00-85.961, 192.00-192.00C 448.00,117.961, 362.039,32.00, 256.00,32.00zM 160.00,224.00A96.00,96.00 10260.00 1,0 352.00,224A96.00,96.00 10260.00 1,0 160.00,224z" />
<glyph unicode="&#xe03c;" d="M 256.00,480.00C 114.615,480.00,0.00,365.385,0.00,224.00s 114.615-256.00, 256.00-256.00s 256.00,114.615, 256.00,256.00S 397.385,480.00, 256.00,480.00z M 403.121,299.456
	c 0.146-3.254, 0.221-6.528, 0.221-9.819c0.00-100.311-76.354-215.982-215.979-215.982c-42.868,0.00-82.768,12.568-116.363,34.107
	c 5.938-0.704, 11.981-1.063, 18.108-1.063c 35.565,0.00, 68.295,12.138, 94.275,32.497c-33.217,0.61-61.25,22.561-70.912,52.716
	c 4.637-0.884, 9.392-1.361, 14.283-1.361c 6.923,0.00, 13.629,0.928, 19.999,2.662c-34.726,6.976-60.893,37.656-60.893,74.434
	c0.00,0.32,0.00,0.639, 0.008,0.955c 10.235-5.685, 21.939-9.10, 34.382-9.494c-20.37,13.611-33.77,36.846-33.77,63.184
	c0.00,13.911, 3.744,26.952, 10.278,38.162c 37.439-45.927, 93.374-76.146, 156.462-79.314c-1.294,5.559-1.965,11.351-1.965,17.302
	c0.00,41.92, 33.99,75.906, 75.909,75.906c 21.833,0.00, 41.562-9.218, 55.409-23.97c 17.29,3.404, 33.537,9.721, 48.206,18.42
	c-5.668-17.727-17.705-32.603-33.376-41.997c 15.355,1.834, 29.984,5.916, 43.597,11.952
	C 430.825,323.529, 417.955,310.16, 403.121,299.456z" />
<glyph unicode="&#xe03d;" d="M 76.194,455.739L 59.014,369.776L 408.888,369.776L 397.946,314.249L 47.852,314.249L 30.906,228.30L 380.748,228.30L 361.239,130.268L 220.233,83.557L 98.033,130.268L 106.397,172.789L 20.448,172.789L0.00,69.613L 202.113-7.739L 435.116,69.613L 512.00,455.739 z" />
<glyph unicode="&#xe03e;" d="M 30.269,480.00l 41.072-460.815L 255.719-32.00l 184.862,51.262L 481.731,480.00L 30.269,480.00 z M 392.315,329.286l-0.195,0.00 L 176.045,329.286 l 5.151-57.875
	L 387.18,271.411 l-15.521-173.505L 255.99,65.818l-0.115-0.039l-0.077,0.00 l-0.061,0.00 l-115.786,32.127l-7.915,88.756l 56.747,0.00 l 4.024-45.116
	l 62.931-16.958l 0.139,0.039l 62.967,16.996l 6.535,73.275L 129.509,214.898 L 114.262,385.798l 283.107,0.00 L 392.315,329.286z" />
<glyph unicode="&#xe03f;" d="M 160.00,224.00A96.00,96.00 5220.00 1,0 352.00,224A96.00,96.00 5220.00 1,0 160.00,224zM 256.00,352.00l 221.743,0.00 C 433.479,428.517, 350.754,480.00, 256.00,480.00C 180.148,480.00, 112.013,447.00, 65.136,394.586l 71.603-124.02
		C 155.364,318.232, 201.737,352.00, 256.00,352.00zM 256.00,96.00c-48.051,0.00-89.91,26.481-111.799,65.643L 34.277,352.035C 12.481,314.372,0.00,270.645,0.00,224.00
		c0.00-123.45, 87.384-226.483, 203.67-250.639l 71.642,124.088C 269.014,96.496, 262.564,96.00, 256.00,96.00zM 493.372,320.00L 340.653,320.00 C 367.231,296.546, 384.00,262.233, 384.00,224.00c0.00-23.934-6.575-46.329-18.009-65.489L 256.00-32.00
		c 141.385,0.00, 256.00,114.615, 256.00,256.00C 512.00,257.952, 505.375,290.352, 493.372,320.00z" />
<glyph unicode="&#xe040;" d="M 511.263,312.93l-5.93-38.04c0.00,0.00-8.477,70.428-18.866,96.757c-15.923,40.344-23.007,40.02-23.054,39.961
	c 10.665-27.102, 8.731-41.662, 8.731-41.662s-18.896,51.499-68.856,67.884c-55.343,18.141-85.285,13.182-88.744,12.243
	c-0.525,0.004-1.032,0.005-1.515,0.005c 0.409-0.031, 0.806-0.073, 1.213-0.106c-0.017-0.01-0.045-0.021-0.041-0.026
	c 0.225-0.274, 61.153-10.651, 71.958-25.498c0.00,0.00-25.88,0.00-51.636-7.421c-1.164-0.333, 94.762-11.982, 114.373-107.837
	c0.00,0.00-10.515,21.938-23.52,25.664c 8.553-26.018, 6.357-75.388-1.788-99.925c-1.048-3.156-2.12,13.641-18.164,20.875
	c 5.14-36.823-0.308-95.228-25.854-111.316c-1.991-1.252, 16.015,57.655, 3.621,34.881c-71.354-109.401-155.702-50.486-193.624-24.555
	c 19.433-4.231, 56.327,0.659, 72.657,12.806c 0.021,0.015, 0.039,0.028, 0.059,0.043c 17.734,12.126, 28.236,20.982, 37.667,18.886
	c 9.437-2.107, 15.719,7.363, 8.39,15.765c-7.338,8.419-25.157,19.989-49.262,13.683c-17.00-4.452-38.067-23.261-70.224-4.216
	c-24.682,14.625-27.006,26.773-27.225,35.188c 0.609,2.983, 1.377,5.768, 2.288,8.312c 2.841,7.935, 11.456,10.329, 16.247,12.219
	c 8.128-1.396, 15.131-3.931, 22.484-7.703c 0.095,2.447, 0.126,5.695-0.009,9.38c 0.705,1.401, 0.269,5.626-0.861,10.79
	c-0.651,5.154-1.71,10.487-3.376,15.346c 0.006,0.001, 0.01,0.005, 0.015,0.007c 0.028,0.009, 0.054,0.02, 0.078,0.035
	c 0.039,0.022, 0.073,0.056, 0.104,0.095c 0.006,0.01, 0.015,0.017, 0.022,0.026c 0.041,0.062, 0.077,0.136, 0.099,0.233
	c 0.51,2.309, 6.011,6.762, 12.859,11.55c 6.136,4.29, 13.351,8.848, 19.034,12.376c 5.03,3.124, 8.86,5.441, 9.673,6.049
	c 0.309,0.233, 0.679,0.506, 1.082,0.818c 0.075,0.058, 0.15,0.116, 0.227,0.177c 0.047,0.037, 0.095,0.074, 0.143,0.113
	c 2.705,2.154, 6.742,6.224, 7.589,14.789c 0.002,0.021, 0.005,0.04, 0.006,0.061c 0.025,0.252, 0.046,0.507, 0.065,0.767
	c 0.014,0.181, 0.025,0.363, 0.036,0.548c 0.007,0.142, 0.016,0.283, 0.022,0.428c 0.015,0.337, 0.025,0.682, 0.03,1.032
	c0.00,0.02, 0.001,0.038, 0.002,0.058c 0.011,0.829-0.003,1.693-0.052,2.601c-0.027,0.507-0.063,0.965-0.149,1.381
	c-0.004,0.022-0.009,0.046-0.014,0.068c-0.009,0.041-0.018,0.082-0.029,0.122c-0.018,0.073-0.038,0.146-0.061,0.215
	c-0.003,0.009-0.005,0.016-0.008,0.023c-0.026,0.08-0.056,0.157-0.087,0.232c-0.002,0.003-0.002,0.005-0.003,0.008
	c-0.877,2.054-4.16,2.829-17.721,3.059c-0.013,0.001-0.025,0.001-0.038,0.001l0.00,0.00c-5.533,0.094-12.769,0.097-22.251,0.059
	c-16.625-0.067-25.814,16.252-28.747,22.566c 4.02,22.23, 15.638,38.071, 34.725,48.813c 0.361,0.203, 0.29,0.371-0.137,0.489
	c 3.732,2.257-45.123,0.062-67.593-28.518c-19.944,4.957-37.327,4.623-52.308,1.107c-2.877,0.081-6.462,0.44-10.717,1.326
	c-9.962,9.028-24.224,25.701-24.988,45.604c0.00,0.00-0.046-0.036-0.126-0.102c-0.01,0.191-0.028,0.38-0.036,0.571
	c0.00,0.00-30.358-23.332-25.814-86.941c-0.011-1.018-0.032-1.993-0.06-2.937c-8.216-11.144-12.293-20.51-12.596-22.578
	C 13.398,316.822, 6.011,294.517,0.00,260.654c0.00,0.00, 4.204,13.333, 12.642,28.433c-6.206-19.011-11.082-48.578-8.218-92.928
	c0.00,0.00, 0.757,9.833, 3.437,23.997c 2.093-27.505, 11.259-61.462, 34.429-101.394c 44.474-76.66, 112.835-115.37, 188.396-121.308
	c 13.418-1.106, 27.025-1.132, 40.712-0.093c 1.258,0.089, 2.516,0.182, 3.775,0.287c 15.482,1.087, 31.067,3.426, 46.619,7.183
	C 534.378,56.23, 511.263,312.93, 511.263,312.93z" />
<glyph unicode="&#xe041;" d="M 367.101,165.585l 118.025,0.00 c 0.91,8.185, 1.274,16.549, 1.274,25.098c0.00,40.112-10.767,77.734-29.562,110.133
	c 19.44,51.654, 18.746,95.494-7.278,121.695c-24.748,24.64-91.145,20.64-166.206-12.599c-5.552,0.42-11.159,0.636-16.819,0.636
	c-103.024,0.00-189.463-70.897-213.354-166.425C 85.50,285.50, 119.50,315.50, 164.92,337.347c-4.13-3.87-28.227-27.826-32.28-31.882
	C 12.866,185.726-24.905,29.312, 15.737-11.337c 30.893-30.887, 86.879-25.671, 151.188,5.824
	c 29.903-15.229, 63.75-23.815, 99.609-23.815c 96.567,0.00, 178.402,62.158, 208.045,148.724L 355.645,119.396 
	c-16.367-30.191-48.374-50.74-85.109-50.74c-36.734,0.00-68.742,20.549-85.108,50.74c-7.275,13.637-11.457,29.277-11.457,45.828l0.00,0.361 
	L 367.101,165.585 z M 174.151,223.598c 2.728,48.555, 43.10,87.292, 92.383,87.292c 49.283,0.00, 89.656-38.736, 92.383-87.292L 174.151,223.598 z M 448.483,398.096
	c 16.763-16.94, 16.344-48.107, 2.006-87.011c-24.568,37.454-60.259,66.968-102.396,83.82
	C 393.146,414.224, 429.796,416.783, 448.483,398.096z M 46.741-3.628c-21.391,21.398-14.942,66.309, 12.615,120.416
	c 17.154-48.135, 50.578-88.545, 93.668-114.577C 105.309-19.448, 66.256-23.126, 46.741-3.628z" />
<glyph unicode="&#xe042;" d="M 255.023,480.00C 115.161,480.00, 14.649,378.552, 14.649,226.388C 14.649,90.979, 112.40-32.00, 255.041-32.00
	c 144.039,0.00, 242.31,122.943, 242.31,258.388C 497.351,379.768, 393.628,480.00, 255.023,480.00z M 344.179,230.729
	c-0.034-84.676-4.549-205.241-89.138-205.241l0.00-0.017 c-83.392,0.00-86.716,120.633-86.716,205.154c0.00,99.19, 9.28,194.284, 86.716,194.284
	C 332.478,424.909, 344.179,328.617, 344.179,230.729z" />
<glyph unicode="&#xe043;" d="M 256.00,448.00c-12.032,0.00-23.854-0.896-35.412-2.606c-0.15,0.391-0.312,0.774-0.491,1.148c 6.413,5.001, 9.775,11.915, 8.317,18.776
		C 226.547,474.10, 217.217,480.00, 205.197,480.00c-2.59,0.00-5.229-0.281-7.84-0.836c-15.084-3.207-25.073-14.311-22.741-25.281
		c 1.417-6.669, 7.146-11.669, 15.082-13.692c-0.016-0.486-0.008-0.975, 0.021-1.467C 89.408,409.959, 16.00,317.555, 16.00,208.00
		c0.00-132.549, 107.452-240.00, 240.00-240.00c 132.549,0.00, 240.00,107.451, 240.00,240.00C 496.00,340.548, 388.549,448.00, 256.00,448.00z M 182.441,455.546
		c-1.353,6.363, 6.24,13.595, 16.579,15.792C 201.086,471.777, 203.165,472.00, 205.197,472.00c 8.018,0.00, 14.347-3.432, 15.392-8.345
		c 0.798-3.755-1.535-7.805-5.693-10.952c-3.517,2.483-8.008,3.563-12.55,2.598c-4.522-0.961-8.174-3.754-10.379-7.428
		C 186.875,449.098, 183.213,451.915, 182.441,455.546z M 384.693,79.307c-21.984-21.984-48.605-37.639-77.655-46.077l-21.198,34.384
		l-5.373-39.979C 272.422,26.559, 264.254,26.00, 256.00,26.00c-48.614,0.00-94.318,18.932-128.693,53.307
		c-21.984,21.983-37.639,48.605-46.077,77.654l 34.384,21.199l-39.98,5.373C 74.559,191.578, 74.00,199.746, 74.00,208.00
		c0.00,48.614, 18.931,94.318, 53.307,128.693c 21.984,21.984, 48.606,37.639, 77.655,46.078l 21.198-34.385l 5.374,39.98
		C 239.578,389.441, 247.746,390.00, 256.00,390.00c 48.614,0.00, 94.318-18.931, 128.693-53.307c 21.984-21.984, 37.639-48.606, 46.077-77.655
		l-34.385-21.199l 39.98-5.373C 437.441,224.422, 438.00,216.254, 438.00,208.00C 438.00,159.386, 419.068,113.682, 384.693,79.307zM 380.451,332.451l-98.489-74.852c-7.322,3.829-15.438,6.031-23.708,6.363l-25.54,53.59l-1.534-59.332
		c-6.642-3.268-12.552-7.832-17.438-13.475l-31.544,11.182l 23.046-24.269c-3.167-6.759-4.933-14.015-5.217-21.412l-53.579-25.533
		l 59.369-1.534c 0.19-0.384, 0.387-0.763, 0.585-1.141l-74.852-98.49l 98.489,74.852c 7.322-3.828, 15.437-6.03, 23.708-6.362l 25.54-53.591
		l 1.533,59.332c 6.643,3.269, 12.553,7.832, 17.439,13.476l 31.545-11.184l-23.047,24.27c 3.168,6.76, 4.934,14.015, 5.218,21.412
		l 53.578,25.533l-59.368,1.535c-0.189,0.383-0.387,0.762-0.585,1.14L 380.451,332.451z M 256.051,257.733l0.00-1.724 L 256.051,257.733 
		L 256.051,257.733z M 246.021,254.951c 3.363,0.715, 6.722,1.059, 10.028,1.059c 2.072,0.00, 4.125-0.135, 6.147-0.398l 0.046-0.016
		l-0.005,0.011c 4.366-0.572, 8.588-1.75, 12.566-3.448l-35.773-27.188l-27.19-35.776c-1.188,2.797-2.135,5.742-2.79,8.826
		C 203.537,223.951, 220.09,249.439, 246.021,254.951z M 281.06,167.058L 281.06,167.058L 281.06,167.058
		c-4.528-2.772-9.591-4.842-15.08-6.009c-3.363-0.715-6.722-1.059-10.027-1.059c-2.075,0.00-4.129,0.136-6.154,0.399l-0.039,0.015
		l 0.005-0.01c-4.367,0.571-8.587,1.75-12.566,3.447l 35.772,27.188l 27.19,35.777c 1.188-2.797, 2.135-5.743, 2.79-8.827
		C 307.296,197.538, 297.923,177.379, 281.06,167.058z" />
<glyph unicode="&#xe044;" d="M 129.772,224.001A59.223,59.223 10260.00 1,0 248.218,224.001A59.223,59.223 10260.00 1,0 129.772,224.001zM 256.002,480.00C 114.615,480.00,0.00,365.384,0.00,224.00s 114.613-256.00, 256.002-256.00C 397.384-32.00, 512.00,82.615, 512.00,224.00
		C 512.00,365.384, 397.385,480.00, 256.002,480.00z M 189.698,0.359C 112.72,45.146, 60.964,128.521, 60.964,224.00
		c0.00,95.479, 51.756,178.854, 128.731,223.641C 266.70,402.86, 318.49,319.497, 318.49,224.00C 318.49,128.506, 266.70,45.141, 189.698,0.359z" />
<glyph unicode="&#xe045;" d="M 256.00,480.00C 114.615,480.00,0.00,365.385,0.00,224.00c0.00-119.285, 81.585-219.516, 192.00-247.935L 192.00,192.00 l-46.263,0.00 l0.00,73.282 L 192.00,265.282 l0.00,47.593 
	C 192.00,377.546, 219.896,416.00, 295.935,416.00l 87.622,0.00 l0.00-79.285 l-71.565,0.00 c-21.241,0.035-23.876-11.076-23.876-31.756L 288.00,265.282l 96.00,0.00 L 371.296,192.00
	L 288.00,192.00 l0.00-222.013 C 414.281-14.265, 512.00,93.453, 512.00,224.00C 512.00,365.385, 397.385,480.00, 256.00,480.00z" />
<glyph unicode="&#xe046;" d="M 409.841,403.168l-307.20,0.00 c-28.16,0.00-51.20-23.04-51.20-51.20l0.00-179.20 c0.00-28.16, 23.04-51.20, 51.20-51.20l 102.40,0.00 l 102.40-76.80l0.00,76.80 l 102.40,0.00 c 28.16,0.00, 51.20,23.04, 51.20,51.20l0.00,179.20 
		C 461.041,380.128, 438.001,403.168, 409.841,403.168z" />
<glyph unicode="&#xe047;" d="M 256.00,480.00C 114.615,480.00,0.00,365.385,0.00,224.00s 114.612-256.00, 256.00-256.00c 141.385,0.00, 256.00,114.615, 256.00,256.00S 397.385,480.00, 256.00,480.00z M 352.00,352.00
	c 17.673,0.00, 32.00-14.327, 32.00-32.00c0.00-17.673-14.327-32.00-32.00-32.00s-32.00,14.327-32.00,32.00C 320.00,337.673, 334.327,352.00, 352.00,352.00z M 160.00,352.00
	c 17.673,0.00, 32.00-14.327, 32.00-32.00c0.00-17.673-14.327-32.00-32.00-32.00s-32.00,14.327-32.00,32.00C 128.00,337.673, 142.327,352.00, 160.00,352.00z M 256.00,64.00
	c-58.255,0.00-109.232,31.137-137.212,77.672l 27.441,16.467C 168.612,120.909, 209.396,96.00, 256.00,96.00
	c 46.604,0.00, 87.386,24.909, 109.771,62.139l 27.441-16.467C 365.23,95.137, 314.255,64.00, 256.00,64.00z" />
<glyph unicode="&#xe048;" d="M 256.00,480.00C 114.615,480.00,0.00,365.385,0.00,224.00s 114.613-256.00, 256.00-256.00c 141.385,0.00, 256.00,114.615, 256.00,256.00S 397.385,480.00, 256.00,480.00z M 320.00,96.00L 192.00,96.00 l0.00,32.00 
	l 128.00,0.00 L 320.00,96.00 z M 352.00,352.00c 17.673,0.00, 32.00-14.327, 32.00-32.00c0.00-17.673-14.327-32.00-32.00-32.00s-32.00,14.327-32.00,32.00C 320.00,337.673, 334.327,352.00, 352.00,352.00z M 160.00,352.00
	c 17.673,0.00, 32.00-14.327, 32.00-32.00c0.00-17.673-14.327-32.00-32.00-32.00s-32.00,14.327-32.00,32.00C 128.00,337.673, 142.327,352.00, 160.00,352.00z" />
<glyph unicode="&#xe049;" d="M 371.441,377.568l-230.40,0.00 c-25.457,0.00-38.40-7.833-38.40-33.28l0.00-240.64 c0.00-25.452, 12.943-33.28, 38.40-33.28l 230.40,0.00 c 25.448,0.00, 38.40,7.827, 38.40,33.28l0.00,240.64 
		C 409.841,369.736, 396.888,377.568, 371.441,377.568z" />
<glyph unicode="&#xe04a;" d="M 474.36,236.236L 283.329,362.968c-14.66,9.768-26.68,2.575-26.68-15.992l0.00-246.008 
		c0.00-18.572, 12.021-25.772, 26.68-15.992l 191.031,126.728c0.00,0.00, 7.16,5.112, 7.16,12.263
		C 481.521,231.116, 474.36,236.236, 474.36,236.236z M 242.029,236.236L 57.629,362.968c-14.66,9.768-26.668,2.575-26.668-15.992
		l0.00-246.008 c0.00-18.572, 12.007-25.772, 26.668-15.992l 184.40,126.728c0.00,0.00, 7.152,5.112, 7.152,12.263
		C 249.18,231.116, 242.029,236.236, 242.029,236.236z" />
<glyph unicode="&#xe04b;" d="M 30.961,223.968c0.00-7.152, 7.149-12.273, 7.149-12.273l 191.041-126.72c 14.66-9.78, 26.68-2.588, 26.68,15.992L 255.828,346.968 
		c0.00,18.568-12.021,25.768-26.68,15.989L 38.108,236.228C 38.108,236.228, 30.961,231.116, 30.961,223.968z M 263.30,223.968
		c0.00-7.152, 7.149-12.273, 7.149-12.273l 184.40-126.72c 14.66-9.78, 26.672-2.588, 26.672,15.992L 481.521,346.968 
		c0.00,18.568-12.012,25.768-26.672,15.989L 270.449,236.228C 270.449,236.228, 263.30,231.116, 263.30,223.968z" />
<glyph unicode="&#xe04c;" d="M 224.00,192.00L 224.00,416.00 C 100.288,416.00,0.00,315.712,0.00,192.00s 100.288-224.00, 224.00-224.00s 224.00,100.288, 224.00,224.00c0.00,36.017-8.514,70.042-23.618,100.191
		L 224.00,192.00zM 456.382,356.191C 419.606,429.599, 343.695,480.00, 256.00,480.00l0.00-224.00 L 456.382,356.191z" />
<glyph unicode="&#xe04d;" d="M 384.00,448.00c-70.692,0.00-128.00-57.308-128.00-128.00l0.00-64.00 L 16.00,256.00 c-8.80,0.00-16.00-7.20-16.00-16.00l0.00-224.00 c0.00-8.80, 7.20-16.00, 16.00-16.00l 288.00,0.00 c 8.80,0.00, 16.00,7.20, 16.00,16.00L 320.00,240.00 
	c0.00,8.80-7.20,16.00-16.00,16.00l-16.00,0.00 l0.00,64.00 c0.00,53.02, 42.98,96.00, 96.00,96.00s 96.00-42.98, 96.00-96.00l0.00-64.00 l 32.00,0.00 l0.00,64.00 C 512.00,390.692, 454.693,448.00, 384.00,448.00z M 186.465,135.959
	L 192.00,64.00l-64.00,0.00 l 5.535,71.959C 120.561,144.551, 112.00,159.272, 112.00,176.00c0.00,26.51, 21.49,48.00, 48.00,48.00s 48.00-21.49, 48.00-48.00
	C 208.00,159.272, 199.439,144.551, 186.465,135.959z" />
<glyph unicode="&#xe04e;" d="M 160.504-32.00C 51.878,29.221, 23.279,87.168, 39.63,166.311c 12.071,58.44, 56.647,105.986, 60.437,164.314
	c 16.884-30.726, 18.888-52.882, 20.775-84.99C 174.542,311.428, 230.231,399.478, 218.19,480.00c0.00,0.00, 133.808-64.00, 142.986-188.138
	c 12.041,25.587, 12.041,66.225,0.00,92.563c 36.122-26.339, 253.609-260.16-22.577-416.425c 51.926,101.105, 13.396,237.527-76.761,300.533
	c 6.021-27.092-1.505-97.832-41.391-142.232c 9.031,45.904-13.546,75.254-13.546,75.254s-7.402-41.555-36.122-83.533
	C 144.553,79.689, 126.381,39.004, 160.504-32.00z" />
<glyph unicode="&#xe04f;" d="M 192.00,480.00L0.00,224.00L 192.00,224.00L 64.00-32.00L 512.00,288.00L 256.00,288.00L 448.00,480.00 z" />
<glyph unicode="&#xe050;" d="M 512.00,287.996L 316.434,287.996 L 256.00,473.991l-60.433-185.995L0.00,287.996 l 158.217-114.952L 97.783-12.951L 256.00,102.00l 158.216-114.95l-60.433,185.994
	L 512.00,287.996z M 256.00,141.554L 256.00,370.437 l 37.185-114.44l 120.33,0.00 l-97.35-70.729l 37.184-114.44L 256.00,141.554z" />
<glyph unicode="&#xe051;" d="M 512.00,287.996L 316.434,287.996L 256.00,473.991L 195.567,287.996L0.00,287.996L 158.217,173.044L 97.783-12.951L 256.00,102.00L 414.216-12.95L 353.783,173.044 z" />
<glyph unicode="&#xe052;" d="M 256.00,370.437l 30.00-92.329l 7.185-22.111l 23.249,0.00 l 97.081,0.00 l-78.541-57.063l-18.809-13.666l 7.185-22.111l 29.999-92.329
	l-78.539,57.062L 256.00,141.554l-18.809-13.665l-78.54-57.062l 30.00,92.329l 7.184,22.111l-18.809,13.666l-78.541,57.063l 97.082,0.00 l 23.25,0.00 
	L 226.00,278.107L 256.00,370.437 M 256.00,473.991l-60.433-185.995L0.00,287.996 l 158.217-114.952L 97.783-12.951L 256.00,102.00l 158.216-114.95l-60.433,185.994
	L 512.00,287.996L 316.434,287.996 L 256.00,473.991L 256.00,473.991z" />
<glyph unicode="&#xe053;" d="M 496.00,288.00L 320.00,288.00 L 320.00,464.00 c0.00,8.836-7.164,16.00-16.00,16.00l-96.00,0.00 c-8.836,0.00-16.00-7.164-16.00-16.00l0.00-176.00 L 16.00,288.00 c-8.836,0.00-16.00-7.164-16.00-16.00l0.00-96.00 
	c0.00-8.836, 7.164-16.00, 16.00-16.00l 176.00,0.00 l0.00-176.00 c0.00-8.836, 7.164-16.00, 16.00-16.00l 96.00,0.00 c 8.836,0.00, 16.00,7.164, 16.00,16.00L 320.00,160.00 l 176.00,0.00 c 8.836,0.00, 16.00,7.164, 16.00,16.00l0.00,96.00 
	C 512.00,280.836, 504.836,288.00, 496.00,288.00z" />
<glyph unicode="&#xe054;" d="M0.00,272.00l0.00-96.00 c0.00-8.836, 7.164-16.00, 16.00-16.00l 480.00,0.00 c 8.836,0.00, 16.00,7.164, 16.00,16.00l0.00,96.00 c0.00,8.836-7.164,16.00-16.00,16.00L 16.00,288.00 C 7.164,288.00,0.00,280.836,0.00,272.00z" />
<glyph unicode="&#xe055;" d="M 256.244,441.568l-138.24-130.04l 76.80,0.00 l0.00-125.96 l 122.88,0.00 L 317.684,311.527 l 76.80,0.00 L 256.244,441.568z M 495.335,146.088L 413.832,200.928l-50.256,0.00 
		l 87.048-66.78L 359.884,134.148 c-2.60,0.00-4.96-1.32-6.133-3.401l-20.92-57.22L 179.632,73.528 l-20.92,57.22
		c-1.16,2.08-3.529,3.401-6.128,3.401L 61.844,134.148 l 87.059,66.78l-50.272,0.00 L 17.144,146.088C 5.017,138.844-2.235,122.148, 1.016,108.987
		l 14.368-78.691c 3.259-13.159, 17.679-23.928, 32.04-23.928l 417.632,0.00 c 14.361,0.00, 28.776,10.767, 32.04,23.928l 14.361,78.691
		C 514.724,122.148, 507.464,138.844, 495.335,146.088z" />
<glyph unicode="&#xe056;" d="M 394.484,315.612l-76.80,0.00 L 317.684,441.568 l-122.88,0.00 L 194.804,315.612 l-76.80,0.00 l 138.24-130.044L 394.484,315.612z M 495.335,146.084L 413.832,200.928l-50.256,0.00 
		L 450.625,134.144L 359.884,134.144 c-2.60,0.00-4.96-1.316-6.133-3.397l-20.92-57.22L 179.632,73.527 l-20.92,57.22
		c-1.16,2.08-3.529,3.397-6.128,3.397L 61.844,134.144 l 87.059,66.784l-50.272,0.00 L 17.144,146.084c-12.128-7.241-19.38-23.936-16.128-37.096
		l 14.368-78.691c 3.259-13.159, 17.679-23.928, 32.04-23.928l 417.632,0.00 c 14.361,0.00, 28.776,10.767, 32.04,23.928l 14.361,78.691
		C 514.724,122.148, 507.464,138.844, 495.335,146.084z" />
<glyph unicode="&#xe058;" d="M 416.00,256.00l 64.00,0.00 l0.00-32.00 l-64.00,0.00 L 416.00,256.00 z M 416.00,480.00l0.00-192.00 l-32.00,0.00 l0.00-96.00 l 32.00,0.00 l0.00-224.00 l 64.00,0.00 L 480.00,192.00 l 32.00,0.00 l0.00,96.00 l-32.00,0.00 L 480.00,480.00 L 416.00,480.00 z M 224.00,128.00l 64.00,0.00 l0.00-32.00 l-64.00,0.00 L 224.00,128.00 z M 224.00,480.00
	l0.00-320.00 l-32.00,0.00 l0.00-96.00 l 32.00,0.00 l0.00-96.00 l 64.00,0.00 l0.00,96.00 l 32.00,0.00 l0.00,96.00 l-32.00,0.00 L 288.00,480.00 L 224.00,480.00 z M 32.00,320.00l 64.00,0.00 l0.00-32.00 L 32.00,288.00 L 32.00,320.00 z M 32.00,480.00l0.00-128.00 L0.00,352.00 l0.00-96.00 l 32.00,0.00 l0.00-288.00 l 64.00,0.00 L 96.00,256.00 l 32.00,0.00 L 128.00,352.00 L 96.00,352.00 L 96.00,480.00 L 32.00,480.00 z" />
<glyph unicode="&#xe057;" d="M0.00,64.00l0.00-96.00 l 96.00,0.00 l0.00,96.00 L0.00,64.00 z M0.00,256.00l0.00-96.00 l 96.00,0.00 l0.00,96.00 L0.00,256.00 z M0.00,448.00l0.00-96.00 l 96.00,0.00 L 96.00,448.00 L0.00,448.00 z M 160.00,256.00l0.00-96.00 l 352.00,0.00 l0.00,96.00 L 160.00,256.00 z M 160.00,64.00l0.00-96.00 l 352.00,0.00 l0.00,96.00 
	L 160.00,64.00 z M 160.00,448.00l0.00-96.00 l 352.00,0.00 L 512.00,448.00 L 160.00,448.00 z" />
<glyph unicode="&#xe059;" d="M0.00,256.00l0.00-96.00 l 512.00,0.00 l0.00,96.00 L0.00,256.00 z M0.00,64.00l0.00-96.00 l 512.00,0.00 l0.00,96.00 L0.00,64.00 z M0.00,448.00l0.00-96.00 l 512.00,0.00 L 512.00,448.00 L0.00,448.00 z" />
<glyph unicode="&#xe05a;" d="M 392.44,110.105C 329.329,133.105, 309.16,152.504, 309.16,194.048c0.00,24.936, 19.269,16.788, 27.728,62.46
		c 3.511,18.94, 20.532,0.304, 23.793,43.556c0.00,17.236-9.292,21.519-9.292,21.519s 4.72,25.504, 6.572,45.136
		c 2.289,24.46-14.132,87.648-101.72,87.648c-87.592,0.00-104.02-63.188-101.72-87.648
		c 1.847-19.632, 6.568-45.136, 6.568-45.136s-9.288-4.284-9.288-21.519c 3.248-43.253, 20.268-24.616, 23.78-43.556
		c 8.468-45.672, 27.728-37.524, 27.728-62.46c0.00-41.545-20.161-60.944-83.269-83.944
		C 56.728,87.025, 15.601,63.503, 15.601,47.463c0.00-16.028,0.00-53.896,0.00-53.896l 240.64,0.00 l 240.64,0.00 c0.00,0.00,0.00,37.868,0.00,53.896
		C 496.881,63.503, 455.749,87.025, 392.44,110.105z" />
<glyph unicode="&#xe05b;" d="M 96.00-32.00L 416.00-32.00L 448.00,320.00L 64.00,320.00 	zM 320.00,416.00L 320.00,480.00 L 192.00,480.00 l0.00-64.00 L 32.00,416.00 l0.00-96.00 l 32.00,32.00l 384.00,0.00 l 32.00-32.00L 480.00,416.00 L 320.00,416.00 z M 288.00,416.00l-64.00,0.00 L 224.00,448.00 l 64.00,0.00 L 288.00,416.00 z" />
<glyph unicode="&#xe05c;" d="M 32.00,128.00L 96.00,128.00L 96.00-32.00L 32.00-32.00zM 160.00,192.00L 224.00,192.00L 224.00-32.00L 160.00-32.00zM 288.00,224.00L 352.00,224.00L 352.00-32.00L 288.00-32.00zM 416.00,320.00L 480.00,320.00L 480.00-32.00L 416.00-32.00zM 384.00,480.00L 416.00,448.00L 288.00,320.00L 224.00,384.00L 32.00,192.00L 64.00,160.00L 224.00,320.00L 288.00,256.00L 448.00,416.00L 480.00,384.00L 480.00,480.00 	z" />
<glyph unicode="&#xe05d;" d="M 256.00,480.00C 114.615,480.00,0.00,365.385,0.00,224.00s 114.615-256.00, 256.00-256.00s 256.00,114.615, 256.00,256.00S 397.385,480.00, 256.00,480.00z M 128.00,352.00l 256.00,0.00 
	c 4.569,0.00, 9.002-0.981, 13.072-2.831L 256.00,184.585L 114.928,349.17C 118.998,351.018, 123.431,352.00, 128.00,352.00z M 96.00,128.00L 96.00,320.00 
	c0.00,0.67, 0.028,1.336, 0.07,2.00l 93.832-109.471L 97.103,119.73C 96.381,122.398, 96.00,125.173, 96.00,128.00z M 384.00,96.00L 128.00,96.00 
	c-2.827,0.00-5.601,0.381-8.27,1.104l 91.059,91.059L 256.00,135.414l 45.212,52.747l 91.058-91.06C 389.60,96.381, 386.827,96.00, 384.00,96.00z
	 M 416.00,128.00c0.00-2.827-0.381-5.60-1.103-8.27l-92.80,92.799L 415.93,322.00c 0.042-0.664, 0.07-1.33, 0.07-2.00L 416.00,128.00 z" />
<glyph unicode="&#x51;" d="M 144.384,474.816 c-2.304-6.144 -0.96-18.624 3.072-27.456 8.832-19.584 7.68-22.656 -13.248-31.872 -14.016-6.144
-29.376-17.472 -42.048-30.528 -4.80-4.80 -10.944-9.984 -13.824-11.52 -4.992-2.304 -5.76-2.112 -14.976,5.184 -5.184,4.224
-9.60,8.448 -9.60,9.408 0.00,2.688 -8.448,7.488 -14.976,8.256 -8.448,0.96 -12.48-2.496 -10.944-9.024 1.344-5.184 10.944-14.784 14.784-14.784
1.152,0.00 7.296-2.496 13.824-5.76 10.752-4.992 11.904-6.144 11.52-10.944 -0.192-2.88 -2.688-10.176 -5.184-16.128 -7.68-16.896 -9.408-26.304 -9.216-46.848 0.576-29.952 -2.496-33.60 -28.416-33.60 -16.32,0.00 -26.88-7.296 -22.08-14.784 3.456-5.76 18.624-4.80 32.448,1.536 12.672,6.144 18.24,6.912 18.24,2.88 0.00-1.536 1.152-3.072 2.496-3.648 1.344-0.576 4.992-6.912 8.064-14.016 6.144-14.40 23.808-39.168 33.792-47.616 3.456-3.072 7.296-7.488 8.64-9.984 2.112-4.032 1.536-5.376 -5.376-14.208 -4.224-5.184 -8.448-9.60 -9.408-9.60 -4.032,0.00 -8.64-11.136 -7.872-19.008 0.768-6.72 1.344-7.872 5.184-7.872 7.104,0.00 14.976,8.256 19.008,19.392 7.104,20.16 13.824,25.152 25.152,18.624 13.056-7.296 29.568-11.136 51.264-11.904 32.832-1.152 32.064-0.576 33.408-24.96 0.768-15.552 3.84-23.232 9.792-25.536 3.456-1.344 9.024,1.536 9.408,4.992 0.192,1.152 0.576,2.688 0.768,3.648 1.152,3.456 0.96,7.296 -0.768,9.60 -0.768,1.152 -1.152,2.304 -0.576,2.304 0.768,0.00 -1.344,5.376 -4.416,12.096 -6.336,13.248 -7.104,18.624 -2.88,18.624 1.536,0.00 2.88,0.768 2.88,1.536 0.00,0.96 6.72,4.416 14.976,8.064 15.36,6.72 42.24,25.92
50.304,36.288 2.688,3.456 7.296,6.528 10.752,7.104 4.992,0.96 7.104-0.192 16.512-9.408 12.864-12.864 15.936-14.40 24.576-13.056 14.208,2.304 6.144,18.24 -12.096,24.384 -13.056,4.224 -21.504,10.368 -21.312,15.168 0.192,2.112 2.496,8.64 5.184,14.592 7.488,16.32 9.408,25.728 9.984,48.768 0.96,32.256 0.768,31.872 25.536,32.64 10.56,0.384 15.36,1.344 19.20,4.224 5.76,4.416 7.488,9.60 4.416,12.672 -2.88,2.88 -17.664,3.456 -20.736,0.96
-1.344-1.152 -2.496-1.536 -2.496-0.768 0.00,0.768 -4.032-0.96 -9.024-3.648 -15.744-8.256 -18.24-6.72 -28.416,16.32 -6.336,14.592 -21.888,36.288 -33.216,46.464 -4.416,4.032 -7.872,7.872 -7.68,8.64 0.00,0.96 -0.384,3.072 -1.152,4.80 -1.152,2.304 0.576,5.952 5.568,12.096 4.032,4.80 7.872,8.64 8.64,8.64 0.768,0.00 3.072,2.304 4.992,5.376 3.648,5.568 3.84,16.704 0.576,20.736 -4.608,5.76 -15.168-3.456 -21.12-18.24 -9.024-22.656
-11.904-24.00 -34.368-14.592 -14.976,6.336 -19.776,7.104 -47.04,7.68 -23.232,0.576 -28.80,1.728 -30.72,6.336 -0.768,1.92 -1.536,10.368
-1.92,19.20 -0.384,13.632 -1.152,16.704 -4.992,20.736 -4.992,5.376 -10.944,5.952 -12.864,1.344z m 83.136-75.456 c 6.336-2.304 12.48-4.416
13.44-4.608 1.152-0.192 4.032-1.152 6.528-1.92 l 4.416-1.536 -6.72-7.104 c-3.648-3.84 -8.64-11.328 -11.136-16.896 -2.496-5.76
-5.952-10.368 -8.064-10.944 -2.304-0.576 -3.264-1.92 -2.688-3.84 0.768-1.728 -1.536-5.76 -5.76-10.176 -3.648-4.032 -7.872-9.984
-9.408-13.248 -3.264-7.488 -7.296-10.752 -12.288-9.984 -3.456,0.384 -4.224,2.112 -4.80,9.60 -0.192,4.992 -2.304,12.672 -4.416,17.28 -2.496,5.184 -3.648,10.176 -2.88,13.632 0.768,3.84 0.192,5.184 -1.728,5.184 -2.112,0.00 -2.688,1.344 -2.112,4.80 0.576,2.496 0.00,8.832 -1.152,13.824 -1.344,4.992
-2.304,10.176 -2.304,11.136 -0.192,1.152 -0.96,3.456 -1.92,5.184 -2.496,4.80 0.768,5.376 22.272,4.608 13.44-0.576 22.656-1.92 30.72-4.992z
m-67.968-7.104 c 0.384-12.864 1.536-18.048 4.608-22.848 1.728-2.88 2.496-6.336 1.728-9.408 -0.768-3.072 -0.384-5.184 1.344-5.76 1.728-0.576
2.88-4.608 3.072-11.136 0.192-5.376 1.536-13.632 3.072-17.856 2.688-7.104 2.688-8.256 -0.192-10.944 -2.688-2.88 -3.456-2.88 -8.832,1.344
-3.264,2.496 -10.368,6.72 -15.936,9.60 -5.376,2.88 -10.368,6.528 -10.944,8.064 -0.576,1.728 -2.688,2.688 -4.416,2.496 -1.92-0.384 -6.912,2.688
-10.944,6.528 -4.224,3.84 -11.328,8.448 -15.936,10.176 -4.608,1.728 -8.256,3.84 -8.256,4.416 0.00,1.92 20.736,21.696 29.76,28.416 6.336,4.608
13.632,8.64 15.744,8.448 0.384,0.00 3.264,1.152 6.72,2.688 8.832,3.84 9.216,3.648 9.408-4.224z m 116.352-22.272 c 4.224-4.608 9.408-10.944 11.328-14.016 1.92-3.072 4.032-5.952 4.80-6.528 1.92-1.536 9.60-17.28 8.448-17.28 -0.576,0.00 0.192-2.496 1.92-5.76 1.536-3.072 2.88-5.952
2.88-6.72 0.00-0.576 -4.224-0.96 -9.60-0.96 -5.184,0.00 -13.824-1.728 -19.20-3.648 -5.376-2.112 -11.328-3.264 -13.44-2.688 -2.112,0.576 -3.84,0.00 -3.84-1.152 0.00-1.152 -3.456-2.112 -8.064-2.112 -4.608-0.192 -12.864-1.728 -18.624-3.648 -10.368-3.648 -10.368-3.648
-13.632,0.384 -3.072,3.84 -3.072,4.416 3.456,12.672 3.648,4.80 8.064,11.904 9.792,15.552 1.728,3.648 4.224,7.488 5.568,8.256 1.152,0.768 2.304,3.072 2.304,4.992 0.00,1.728 2.88,6.144 6.528,9.60 3.648,3.648 8.448,10.752 10.752,15.744 4.608,11.136 6.144,10.752 18.624-2.688z m-181.824-28.80 c 1.92-2.496
9.024-7.488 15.744-10.944 6.72-3.456 13.248-8.064 14.592-9.984 1.344-1.92 3.456-3.072 4.608-2.304 0.96,0.576 4.608-1.344 7.872-4.608 3.456-3.264 9.984-7.872 14.592-10.368 4.80-2.496 8.832-5.376 9.216-6.336 1.536-4.608 -4.416-8.64 -13.824-9.216 -5.184-0.384 -12.672-2.688
-16.128-4.80 -5.184-3.264 -7.296-3.648 -9.408-1.728 -2.112,1.728 -3.264,1.536 -4.992-0.768 -1.152-1.536 -3.648-2.496 -5.376-2.112 -1.92,0.384 -8.256-0.384 -14.016-1.536 -5.76-1.152 -10.752-1.92 -10.944-1.728 -0.384,0.192 -2.496-0.576 -4.80-1.728 -3.264-1.728 -4.224-1.728 -5.184,0.768 -3.456,8.832 0.576,39.744 7.104,55.104 1.728,3.84 3.072,7.872 3.264,8.64 0.192,2.88 2.304,8.064 3.264,8.064 0.576,0.00 2.496-1.92 4.416-4.416z
m 214.656-56.448 c-0.768-14.208 -2.304-23.808 -4.992-30.336 -2.112-5.184 -3.84-10.368 -3.84-11.136 0.00-2.88 -4.608-12.864
-5.952-12.864 -0.768,0.00 -3.456,2.112 -5.952,4.80 -4.992,5.376 -20.16,14.40 -24.00,14.40 -1.344,0.00 -2.88,1.728 -3.456,4.032 -0.768,2.496
-2.304,3.648 -4.608,3.264 -1.92-0.384 -5.376,1.536 -7.872,4.608 -2.304,2.88 -9.408,7.68 -15.36,10.752 -9.792,4.80 -10.944,5.952 -9.984,10.176
0.96,3.648 2.496,4.608 7.296,4.80 3.264,0.00 6.528,0.576 7.296,1.152 0.576,0.768 2.304,0.768 3.648,0.384 1.344-0.576 5.952,0.768 10.368,2.88 4.992,2.688 9.60,3.648
12.672,2.88 3.456-0.768 4.80-0.384 4.80,1.536 0.00,1.92 1.92,2.496 6.336,2.112 3.264-0.384 11.712,0.96 18.624,3.072 6.912,1.92 13.248,3.648 14.208,3.84
0.96,0.192 1.344-8.832 0.768-20.352z m-143.616-14.40 c 3.456-4.224 3.264-4.416 -2.304-10.944 -3.264-3.648 -7.68-10.752 -9.792-15.936
-2.112-4.992 -4.992-9.216 -6.336-9.216 -1.536,0.00 -2.688-1.92 -2.688-4.416 0.00-2.496 -2.688-6.912 -5.952-10.176 -3.264-3.072
-8.064-10.176 -10.752-15.552 l-4.608-10.176 -6.528,4.992 c-3.456,2.688 -10.176,9.792 -14.784,15.744 -4.608,5.952 -8.832,11.328 -9.408,11.904
-1.728,1.536 -7.68,13.44 -8.448,16.896 -0.384,1.92 -1.152,5.568 -1.92,8.64 -1.344,4.992 -1.152,5.184 5.952,5.376 11.712,0.192 17.28,1.152 23.232,4.416 3.264,1.536 7.488,2.496 9.60,1.92 2.304-0.576 4.608-0.192 5.184,0.96 0.768,1.152 4.992,2.112 9.408,2.304 4.416,0.00 11.904,1.536 16.704,3.648 4.80,1.92 9.024,3.456
9.216,3.648 0.384,0.192 2.304-1.728 4.224-4.032z m 72.576-21.504 c 4.416-1.92 8.064-4.80 8.064-6.336 0.00-1.344 1.92-2.496 4.416-2.496
2.496,0.00 7.104-2.88 10.752-6.528 3.648-3.648 10.752-8.448 15.936-10.752 l 9.408-4.032 -5.952-7.488 c-7.296-9.216 -40.32-33.792
-40.32-29.952 0.00,0.576 -3.072-0.384 -6.72-1.92 -9.792-4.032 -11.904-3.456 -10.944,2.688 0.384,2.88 -1.152,10.56 -3.456,16.704 -2.304,6.336 -4.224,14.016 -4.032,16.896 0.00,2.88 -1.152,5.76 -2.496,6.336 -1.344,0.576 -2.112,3.072 -1.728,6.144 0.576,2.88 -0.192,9.024 -1.344,13.824 -4.032,16.704 -4.032,16.896 0.192,19.968 3.648,2.496 4.608,2.304 12.096-3.264 4.224-3.456 11.52-7.872 16.128-9.792z m-46.272-6.528 c 1.152-7.296
3.648-15.744 5.376-18.432 2.112-3.072 2.496-4.992 1.152-4.992 -3.072,0.00 -2.496-5.76 0.768-6.912 1.92-0.768 2.496-2.688 1.728-5.568 -0.96-3.84 0.768-12.672 6.144-31.104 1.152-4.416 0.96-4.416 -13.824-4.224 -8.832,0.00 -20.736,1.536 -28.608,3.84 -7.296,1.92 -14.208,3.84
-15.36,4.224 -4.608,1.152 -14.40,5.76 -14.40,6.528 0.00,0.576 2.688,4.032 5.952,7.872 3.456,3.84 8.256,11.52 10.752,17.088 2.688,5.952 5.952,10.176 7.68,10.176 1.92,0.00 2.688,1.152 1.92,3.648 -0.576,2.496 1.344,5.952 6.336,10.752 4.032,3.84 8.832,10.752 10.752,15.36 2.88,7.104 3.84,8.064 7.296,6.72 3.264-1.152 4.416-4.224 6.336-14.976z" />
<glyph unicode="&#xe00a;" d="M 426.655,480.00L 85.345,480.00 C 38.405,480.00,0.00,441.608,0.00,394.671l0.00-341.328 C0.00,6.405, 38.405-32.00, 85.345-32.00l 341.311,0.00 
	C 473.625-32.00, 512.00,6.405, 512.00,53.343L 512.00,394.671 C 512.00,441.608, 473.625,480.00, 426.655,480.00z M 128.00,352.00l 256.00,0.00 c 4.569,0.00, 9.002-0.981, 13.072-2.831
	L 256.00,184.585L 114.928,349.17C 118.998,351.018, 123.431,352.00, 128.00,352.00z M 96.00,128.00L 96.00,320.00 c0.00,0.67, 0.028,1.336, 0.07,2.00l 93.832-109.47
	L 97.103,119.73C 96.381,122.399, 96.00,125.173, 96.00,128.00z M 384.00,96.00L 128.00,96.00 c-2.827,0.00-5.601,0.381-8.27,1.103l 91.059,91.059L 256.00,135.414
	l 45.212,52.747l 91.058-91.059C 389.60,96.381, 386.827,96.00, 384.00,96.00z M 416.00,128.00c0.00-2.827-0.381-5.60-1.103-8.27l-92.799,92.799L 415.93,322.00
	c 0.042-0.664, 0.07-1.33, 0.07-2.00L 416.00,128.00 z" />
<glyph unicode="&#xe00b;" d="M 424.598,402.047c 3.946,12.739, 9.222,41.029-5.26,77.244c0.00,0.00-25.548,8.113-83.339-30.565
			c-22.645,5.656-46.731,8.453-70.859,8.453c-26.547,0.00-53.372-3.383-78.393-10.244c-59.63,40.683-85.956,32.348-85.956,32.348
			C 83.604,436.31, 94.228,404.492, 97.46,396.589c-20.196-21.797-32.528-49.623-32.528-83.738c0.00-25.757, 2.933-48.86, 10.097-68.943
			l 7.532-17.061c 20.129-37.527, 59.824-61.766, 130.437-69.377c-10.022-6.729-20.245-18.18-24.389-37.556
			c-13.66-6.533-56.891-22.479-82.833,22.14c0.00,0.00-14.521,26.551-42.312,28.627c0.00,0.00-26.96,0.414-1.863-16.801
			c0.00,0.00, 18.04-8.501, 30.488-40.443c0.00,0.00, 16.236-54.492, 94.59-37.008l0.00-56.28 c0.00,0.00-1.655-19.907-19.906-26.54
			c0.00,0.00-10.781-7.473, 0.835-11.609c0.00,0.00, 50.589-4.149, 50.589,37.318l0.00,61.371 c0.00,0.00-2.007,24.338, 9.952,32.802l0.00-100.806 
			c0.00,0.00-0.827-24.056-13.267-33.176c0.00,0.00-8.301-14.923, 9.947-10.785c0.00,0.00, 34.833,4.979, 36.493,45.615l 0.789,102.014l 8.373,0.00 
			l 0.796-102.014c 1.658-40.636, 36.491-45.615, 36.491-45.615c 18.24-4.138, 9.949,10.785, 9.949,10.785
			c-12.441,9.125-13.268,33.176-13.268,33.176L 304.452,112.62 c 11.948-9.312, 9.949-31.933, 9.949-31.933l0.00-61.369 
			c0.00-41.471, 50.592-37.316, 50.592-37.316c 11.605,4.139, 0.832,11.604, 0.832,11.604c-18.249,6.634-19.905,26.542-19.905,26.542
			l0.00,80.442 c0.00,31.371-13.209,47.989-26.131,56.755c 75.307,7.469, 111.444,31.782, 128.094,69.564l 5.946,16.865
			c 5.583,20.118, 7.262,43.271, 7.262,69.088C 461.092,349.886, 447.181,379.507, 424.598,402.047z M 264.535,171.357
			c-82.092,0.00-148.627,12.355-148.627,91.684c0.00,18.991, 9.354,36.625, 25.371,51.259c 26.725,24.389, 71.947,11.475, 123.253,11.475
			c 51.078,0.008, 96.148,13.053, 122.906-11.168l 0.01-0.008c 16.219-14.696, 25.706-32.441, 25.706-51.559
			C 413.156,173.771, 346.615,171.357, 264.535,171.357zM 184.177,303.006c-17.079,0.00-30.924-19.924-30.924-44.506c0.00-24.589, 13.846-44.52, 30.924-44.52s 30.922,19.931, 30.922,44.52
			C 215.099,283.082, 201.254,302.988, 184.177,303.006zM 350.095,303.006c-17.078,0.00-30.921-19.924-30.921-44.506c0.00-24.589, 13.843-44.52, 30.921-44.52
			c 17.079,0.00, 30.922,19.931, 30.922,44.52C 381.018,283.082, 367.175,302.988, 350.095,303.006z" />
<glyph class="hidden" unicode="&#xf000;" d="M0,480L 512 -32L0 -32 z" horiz-adv-x="0" />
</font></defs></svg>